<?xml version="1.0" encoding="utf-8" standalone="no"?>
<!DOCTYPE svg PUBLIC "-//W3C//DTD SVG 1.1//EN"
  "http://www.w3.org/Graphics/SVG/1.1/DTD/svg11.dtd">
<!-- Created with matplotlib (https://matplotlib.org/) -->
<svg height="345.6pt" version="1.1" viewBox="0 0 460.8 345.6" width="460.8pt" xmlns="http://www.w3.org/2000/svg" xmlns:xlink="http://www.w3.org/1999/xlink">
 <defs>
  <style type="text/css">
*{stroke-linecap:butt;stroke-linejoin:round;}
  </style>
 </defs>
 <g id="figure_1">
  <g id="patch_1">
   <path d="M 0 345.6 
L 460.8 345.6 
L 460.8 0 
L 0 0 
z
" style="fill:#ffffff;"/>
  </g>
  <g id="axes_1">
   <g id="patch_2">
    <path d="M 57.6 307.584 
L 414.72 307.584 
L 414.72 41.472 
L 57.6 41.472 
z
" style="fill:#ffffff;"/>
   </g>
   <g id="patch_3">
    <path clip-path="url(#p408d061bda)" d="M -91.021424 307.584 
L -85.586683 307.584 
L -85.586683 307.58236 
L -91.021424 307.58236 
z
" style="fill:#ff7f0e;opacity:0.5;"/>
   </g>
   <g id="patch_4">
    <path clip-path="url(#p408d061bda)" d="M -85.586683 307.584 
L -80.151943 307.584 
L -80.151943 307.58236 
L -85.586683 307.58236 
z
" style="fill:#ff7f0e;opacity:0.5;"/>
   </g>
   <g id="patch_5">
    <path clip-path="url(#p408d061bda)" d="M -80.151943 307.584 
L -74.717202 307.584 
L -74.717202 307.58072 
L -80.151943 307.58072 
z
" style="fill:#ff7f0e;opacity:0.5;"/>
   </g>
   <g id="patch_6">
    <path clip-path="url(#p408d061bda)" d="M -74.717202 307.584 
L -69.282462 307.584 
L -69.282462 307.584 
L -74.717202 307.584 
z
" style="fill:#ff7f0e;opacity:0.5;"/>
   </g>
   <g id="patch_7">
    <path clip-path="url(#p408d061bda)" d="M -69.282462 307.584 
L -63.847721 307.584 
L -63.847721 307.584 
L -69.282462 307.584 
z
" style="fill:#ff7f0e;opacity:0.5;"/>
   </g>
   <g id="patch_8">
    <path clip-path="url(#p408d061bda)" d="M -63.847721 307.584 
L -58.41298 307.584 
L -58.41298 307.584 
L -63.847721 307.584 
z
" style="fill:#ff7f0e;opacity:0.5;"/>
   </g>
   <g id="patch_9">
    <path clip-path="url(#p408d061bda)" d="M -58.41298 307.584 
L -52.97824 307.584 
L -52.97824 307.57744 
L -58.41298 307.57744 
z
" style="fill:#ff7f0e;opacity:0.5;"/>
   </g>
   <g id="patch_10">
    <path clip-path="url(#p408d061bda)" d="M -52.97824 307.584 
L -47.543499 307.584 
L -47.543499 307.57908 
L -52.97824 307.57908 
z
" style="fill:#ff7f0e;opacity:0.5;"/>
   </g>
   <g id="patch_11">
    <path clip-path="url(#p408d061bda)" d="M -47.543499 307.584 
L -42.108759 307.584 
L -42.108759 307.57908 
L -47.543499 307.57908 
z
" style="fill:#ff7f0e;opacity:0.5;"/>
   </g>
   <g id="patch_12">
    <path clip-path="url(#p408d061bda)" d="M -42.108759 307.584 
L -36.674018 307.584 
L -36.674018 307.575801 
L -42.108759 307.575801 
z
" style="fill:#ff7f0e;opacity:0.5;"/>
   </g>
   <g id="patch_13">
    <path clip-path="url(#p408d061bda)" d="M -36.674018 307.584 
L -31.239278 307.584 
L -31.239278 307.574161 
L -36.674018 307.574161 
z
" style="fill:#ff7f0e;opacity:0.5;"/>
   </g>
   <g id="patch_14">
    <path clip-path="url(#p408d061bda)" d="M -31.239278 307.584 
L -25.804537 307.584 
L -25.804537 307.567601 
L -31.239278 307.567601 
z
" style="fill:#ff7f0e;opacity:0.5;"/>
   </g>
   <g id="patch_15">
    <path clip-path="url(#p408d061bda)" d="M -25.804537 307.584 
L -20.369797 307.584 
L -20.369797 307.567601 
L -25.804537 307.567601 
z
" style="fill:#ff7f0e;opacity:0.5;"/>
   </g>
   <g id="patch_16">
    <path clip-path="url(#p408d061bda)" d="M -20.369797 307.584 
L -14.935056 307.584 
L -14.935056 307.562682 
L -20.369797 307.562682 
z
" style="fill:#ff7f0e;opacity:0.5;"/>
   </g>
   <g id="patch_17">
    <path clip-path="url(#p408d061bda)" d="M -14.935056 307.584 
L -9.500316 307.584 
L -9.500316 307.549562 
L -14.935056 307.549562 
z
" style="fill:#ff7f0e;opacity:0.5;"/>
   </g>
   <g id="patch_18">
    <path clip-path="url(#p408d061bda)" d="M -9.500316 307.584 
L -4.065575 307.584 
L -4.065575 307.543003 
L -9.500316 307.543003 
z
" style="fill:#ff7f0e;opacity:0.5;"/>
   </g>
   <g id="patch_19">
    <path clip-path="url(#p408d061bda)" d="M -4.065575 307.584 
L 1.369165 307.584 
L 1.369165 307.543003 
L -4.065575 307.543003 
z
" style="fill:#ff7f0e;opacity:0.5;"/>
   </g>
   <g id="patch_20">
    <path clip-path="url(#p408d061bda)" d="M 1.369165 307.584 
L 6.803906 307.584 
L 6.803906 307.544643 
L 1.369165 307.544643 
z
" style="fill:#ff7f0e;opacity:0.5;"/>
   </g>
   <g id="patch_21">
    <path clip-path="url(#p408d061bda)" d="M 6.803906 307.584 
L 12.238646 307.584 
L 12.238646 307.524964 
L 6.803906 307.524964 
z
" style="fill:#ff7f0e;opacity:0.5;"/>
   </g>
   <g id="patch_22">
    <path clip-path="url(#p408d061bda)" d="M 12.238646 307.584 
L 17.673387 307.584 
L 17.673387 307.521684 
L 12.238646 307.521684 
z
" style="fill:#ff7f0e;opacity:0.5;"/>
   </g>
   <g id="patch_23">
    <path clip-path="url(#p408d061bda)" d="M 17.673387 307.584 
L 23.108127 307.584 
L 23.108127 307.515125 
L 17.673387 307.515125 
z
" style="fill:#ff7f0e;opacity:0.5;"/>
   </g>
   <g id="patch_24">
    <path clip-path="url(#p408d061bda)" d="M 23.108127 307.584 
L 28.542868 307.584 
L 28.542868 307.472488 
L 23.108127 307.472488 
z
" style="fill:#ff7f0e;opacity:0.5;"/>
   </g>
   <g id="patch_25">
    <path clip-path="url(#p408d061bda)" d="M 28.542868 307.584 
L 33.977608 307.584 
L 33.977608 307.456089 
L 28.542868 307.456089 
z
" style="fill:#ff7f0e;opacity:0.5;"/>
   </g>
   <g id="patch_26">
    <path clip-path="url(#p408d061bda)" d="M 33.977608 307.584 
L 39.412349 307.584 
L 39.412349 307.416732 
L 33.977608 307.416732 
z
" style="fill:#ff7f0e;opacity:0.5;"/>
   </g>
   <g id="patch_27">
    <path clip-path="url(#p408d061bda)" d="M 39.412349 307.584 
L 44.847089 307.584 
L 44.847089 307.369175 
L 39.412349 307.369175 
z
" style="fill:#ff7f0e;opacity:0.5;"/>
   </g>
   <g id="patch_28">
    <path clip-path="url(#p408d061bda)" d="M 44.847089 307.584 
L 50.28183 307.584 
L 50.28183 307.360976 
L 44.847089 307.360976 
z
" style="fill:#ff7f0e;opacity:0.5;"/>
   </g>
   <g id="patch_29">
    <path clip-path="url(#p408d061bda)" d="M 50.28183 307.584 
L 55.71657 307.584 
L 55.71657 307.313419 
L 50.28183 307.313419 
z
" style="fill:#ff7f0e;opacity:0.5;"/>
   </g>
   <g id="patch_30">
    <path clip-path="url(#p408d061bda)" d="M 55.71657 307.584 
L 61.151311 307.584 
L 61.151311 307.285541 
L 55.71657 307.285541 
z
" style="fill:#ff7f0e;opacity:0.5;"/>
   </g>
   <g id="patch_31">
    <path clip-path="url(#p408d061bda)" d="M 61.151311 307.584 
L 66.586051 307.584 
L 66.586051 307.237985 
L 61.151311 307.237985 
z
" style="fill:#ff7f0e;opacity:0.5;"/>
   </g>
   <g id="patch_32">
    <path clip-path="url(#p408d061bda)" d="M 66.586051 307.584 
L 72.020792 307.584 
L 72.020792 307.093675 
L 66.586051 307.093675 
z
" style="fill:#ff7f0e;opacity:0.5;"/>
   </g>
   <g id="patch_33">
    <path clip-path="url(#p408d061bda)" d="M 72.020792 307.584 
L 77.455532 307.584 
L 77.455532 306.949365 
L 72.020792 306.949365 
z
" style="fill:#ff7f0e;opacity:0.5;"/>
   </g>
   <g id="patch_34">
    <path clip-path="url(#p408d061bda)" d="M 77.455532 307.584 
L 82.890273 307.584 
L 82.890273 306.798496 
L 77.455532 306.798496 
z
" style="fill:#ff7f0e;opacity:0.5;"/>
   </g>
   <g id="patch_35">
    <path clip-path="url(#p408d061bda)" d="M 82.890273 307.584 
L 88.325013 307.584 
L 88.325013 306.524635 
L 82.890273 306.524635 
z
" style="fill:#ff7f0e;opacity:0.5;"/>
   </g>
   <g id="patch_36">
    <path clip-path="url(#p408d061bda)" d="M 88.325013 307.584 
L 93.759754 307.584 
L 93.759754 306.168781 
L 88.325013 306.168781 
z
" style="fill:#ff7f0e;opacity:0.5;"/>
   </g>
   <g id="patch_37">
    <path clip-path="url(#p408d061bda)" d="M 93.759754 307.584 
L 99.194495 307.584 
L 99.194495 305.747331 
L 93.759754 305.747331 
z
" style="fill:#ff7f0e;opacity:0.5;"/>
   </g>
   <g id="patch_38">
    <path clip-path="url(#p408d061bda)" d="M 99.194495 307.584 
L 104.629235 307.584 
L 104.629235 305.18813 
L 99.194495 305.18813 
z
" style="fill:#ff7f0e;opacity:0.5;"/>
   </g>
   <g id="patch_39">
    <path clip-path="url(#p408d061bda)" d="M 104.629235 307.584 
L 110.063976 307.584 
L 110.063976 304.302593 
L 104.629235 304.302593 
z
" style="fill:#ff7f0e;opacity:0.5;"/>
   </g>
   <g id="patch_40">
    <path clip-path="url(#p408d061bda)" d="M 110.063976 307.584 
L 115.498716 307.584 
L 115.498716 302.987407 
L 110.063976 302.987407 
z
" style="fill:#ff7f0e;opacity:0.5;"/>
   </g>
   <g id="patch_41">
    <path clip-path="url(#p408d061bda)" d="M 115.498716 307.584 
L 120.933457 307.584 
L 120.933457 301.554149 
L 115.498716 301.554149 
z
" style="fill:#ff7f0e;opacity:0.5;"/>
   </g>
   <g id="patch_42">
    <path clip-path="url(#p408d061bda)" d="M 120.933457 307.584 
L 126.368197 307.584 
L 126.368197 299.246833 
L 120.933457 299.246833 
z
" style="fill:#ff7f0e;opacity:0.5;"/>
   </g>
   <g id="patch_43">
    <path clip-path="url(#p408d061bda)" d="M 126.368197 307.584 
L 131.802938 307.584 
L 131.802938 296.385237 
L 126.368197 296.385237 
z
" style="fill:#ff7f0e;opacity:0.5;"/>
   </g>
   <g id="patch_44">
    <path clip-path="url(#p408d061bda)" d="M 131.802938 307.584 
L 137.237678 307.584 
L 137.237678 292.475755 
L 131.802938 292.475755 
z
" style="fill:#ff7f0e;opacity:0.5;"/>
   </g>
   <g id="patch_45">
    <path clip-path="url(#p408d061bda)" d="M 137.237678 307.584 
L 142.672419 307.584 
L 142.672419 287.76273 
L 137.237678 287.76273 
z
" style="fill:#ff7f0e;opacity:0.5;"/>
   </g>
   <g id="patch_46">
    <path clip-path="url(#p408d061bda)" d="M 142.672419 307.584 
L 148.107159 307.584 
L 148.107159 281.432781 
L 142.672419 281.432781 
z
" style="fill:#ff7f0e;opacity:0.5;"/>
   </g>
   <g id="patch_47">
    <path clip-path="url(#p408d061bda)" d="M 148.107159 307.584 
L 153.5419 307.584 
L 153.5419 273.376034 
L 148.107159 273.376034 
z
" style="fill:#ff7f0e;opacity:0.5;"/>
   </g>
   <g id="patch_48">
    <path clip-path="url(#p408d061bda)" d="M 153.5419 307.584 
L 158.97664 307.584 
L 158.97664 264.535423 
L 153.5419 264.535423 
z
" style="fill:#ff7f0e;opacity:0.5;"/>
   </g>
   <g id="patch_49">
    <path clip-path="url(#p408d061bda)" d="M 158.97664 307.584 
L 164.411381 307.584 
L 164.411381 253.225147 
L 158.97664 253.225147 
z
" style="fill:#ff7f0e;opacity:0.5;"/>
   </g>
   <g id="patch_50">
    <path clip-path="url(#p408d061bda)" d="M 164.411381 307.584 
L 169.846121 307.584 
L 169.846121 240.214313 
L 164.411381 240.214313 
z
" style="fill:#ff7f0e;opacity:0.5;"/>
   </g>
   <g id="patch_51">
    <path clip-path="url(#p408d061bda)" d="M 169.846121 307.584 
L 175.280862 307.584 
L 175.280862 226.181831 
L 169.846121 226.181831 
z
" style="fill:#ff7f0e;opacity:0.5;"/>
   </g>
   <g id="patch_52">
    <path clip-path="url(#p408d061bda)" d="M 175.280862 307.584 
L 180.715602 307.584 
L 180.715602 210.214288 
L 175.280862 210.214288 
z
" style="fill:#ff7f0e;opacity:0.5;"/>
   </g>
   <g id="patch_53">
    <path clip-path="url(#p408d061bda)" d="M 180.715602 307.584 
L 186.150343 307.584 
L 186.150343 192.075538 
L 180.715602 192.075538 
z
" style="fill:#ff7f0e;opacity:0.5;"/>
   </g>
   <g id="patch_54">
    <path clip-path="url(#p408d061bda)" d="M 186.150343 307.584 
L 191.585083 307.584 
L 191.585083 173.07585 
L 186.150343 173.07585 
z
" style="fill:#ff7f0e;opacity:0.5;"/>
   </g>
   <g id="patch_55">
    <path clip-path="url(#p408d061bda)" d="M 191.585083 307.584 
L 197.019824 307.584 
L 197.019824 154.723915 
L 191.585083 154.723915 
z
" style="fill:#ff7f0e;opacity:0.5;"/>
   </g>
   <g id="patch_56">
    <path clip-path="url(#p408d061bda)" d="M 197.019824 307.584 
L 202.454564 307.584 
L 202.454564 134.582868 
L 197.019824 134.582868 
z
" style="fill:#ff7f0e;opacity:0.5;"/>
   </g>
   <g id="patch_57">
    <path clip-path="url(#p408d061bda)" d="M 202.454564 307.584 
L 207.889305 307.584 
L 207.889305 116.526113 
L 202.454564 116.526113 
z
" style="fill:#ff7f0e;opacity:0.5;"/>
   </g>
   <g id="patch_58">
    <path clip-path="url(#p408d061bda)" d="M 207.889305 307.584 
L 213.324045 307.584 
L 213.324045 100.086283 
L 207.889305 100.086283 
z
" style="fill:#ff7f0e;opacity:0.5;"/>
   </g>
   <g id="patch_59">
    <path clip-path="url(#p408d061bda)" d="M 213.324045 307.584 
L 218.758786 307.584 
L 218.758786 85.205981 
L 213.324045 85.205981 
z
" style="fill:#ff7f0e;opacity:0.5;"/>
   </g>
   <g id="patch_60">
    <path clip-path="url(#p408d061bda)" d="M 218.758786 307.584 
L 224.193526 307.584 
L 224.193526 72.078715 
L 218.758786 72.078715 
z
" style="fill:#ff7f0e;opacity:0.5;"/>
   </g>
   <g id="patch_61">
    <path clip-path="url(#p408d061bda)" d="M 224.193526 307.584 
L 229.628267 307.584 
L 229.628267 64.271231 
L 224.193526 64.271231 
z
" style="fill:#ff7f0e;opacity:0.5;"/>
   </g>
   <g id="patch_62">
    <path clip-path="url(#p408d061bda)" d="M 229.628267 307.584 
L 235.063007 307.584 
L 235.063007 59.861585 
L 229.628267 59.861585 
z
" style="fill:#ff7f0e;opacity:0.5;"/>
   </g>
   <g id="patch_63">
    <path clip-path="url(#p408d061bda)" d="M 235.063007 307.584 
L 240.497748 307.584 
L 240.497748 58.403728 
L 235.063007 58.403728 
z
" style="fill:#ff7f0e;opacity:0.5;"/>
   </g>
   <g id="patch_64">
    <path clip-path="url(#p408d061bda)" d="M 240.497748 307.584 
L 245.932488 307.584 
L 245.932488 61.716293 
L 240.497748 61.716293 
z
" style="fill:#ff7f0e;opacity:0.5;"/>
   </g>
   <g id="patch_65">
    <path clip-path="url(#p408d061bda)" d="M 245.932488 307.584 
L 251.367229 307.584 
L 251.367229 68.118397 
L 245.932488 68.118397 
z
" style="fill:#ff7f0e;opacity:0.5;"/>
   </g>
   <g id="patch_66">
    <path clip-path="url(#p408d061bda)" d="M 251.367229 307.584 
L 256.80197 307.584 
L 256.80197 79.31716 
L 251.367229 79.31716 
z
" style="fill:#ff7f0e;opacity:0.5;"/>
   </g>
   <g id="patch_67">
    <path clip-path="url(#p408d061bda)" d="M 256.80197 307.584 
L 262.23671 307.584 
L 262.23671 92.044295 
L 256.80197 92.044295 
z
" style="fill:#ff7f0e;opacity:0.5;"/>
   </g>
   <g id="patch_68">
    <path clip-path="url(#p408d061bda)" d="M 262.23671 307.584 
L 267.671451 307.584 
L 267.671451 108.887537 
L 262.23671 108.887537 
z
" style="fill:#ff7f0e;opacity:0.5;"/>
   </g>
   <g id="patch_69">
    <path clip-path="url(#p408d061bda)" d="M 267.671451 307.584 
L 273.106191 307.584 
L 273.106191 127.082042 
L 267.671451 127.082042 
z
" style="fill:#ff7f0e;opacity:0.5;"/>
   </g>
   <g id="patch_70">
    <path clip-path="url(#p408d061bda)" d="M 273.106191 307.584 
L 278.540932 307.584 
L 278.540932 146.563856 
L 273.106191 146.563856 
z
" style="fill:#ff7f0e;opacity:0.5;"/>
   </g>
   <g id="patch_71">
    <path clip-path="url(#p408d061bda)" d="M 278.540932 307.584 
L 283.975672 307.584 
L 283.975672 166.230977 
L 278.540932 166.230977 
z
" style="fill:#ff7f0e;opacity:0.5;"/>
   </g>
   <g id="patch_72">
    <path clip-path="url(#p408d061bda)" d="M 283.975672 307.584 
L 289.410413 307.584 
L 289.410413 185.073236 
L 283.975672 185.073236 
z
" style="fill:#ff7f0e;opacity:0.5;"/>
   </g>
   <g id="patch_73">
    <path clip-path="url(#p408d061bda)" d="M 289.410413 307.584 
L 294.845153 307.584 
L 294.845153 202.351047 
L 289.410413 202.351047 
z
" style="fill:#ff7f0e;opacity:0.5;"/>
   </g>
   <g id="patch_74">
    <path clip-path="url(#p408d061bda)" d="M 294.845153 307.584 
L 300.279894 307.584 
L 300.279894 218.994223 
L 294.845153 218.994223 
z
" style="fill:#ff7f0e;opacity:0.5;"/>
   </g>
   <g id="patch_75">
    <path clip-path="url(#p408d061bda)" d="M 300.279894 307.584 
L 305.714634 307.584 
L 305.714634 234.694466 
L 300.279894 234.694466 
z
" style="fill:#ff7f0e;opacity:0.5;"/>
   </g>
   <g id="patch_76">
    <path clip-path="url(#p408d061bda)" d="M 305.714634 307.584 
L 311.149375 307.584 
L 311.149375 247.733178 
L 305.714634 247.733178 
z
" style="fill:#ff7f0e;opacity:0.5;"/>
   </g>
   <g id="patch_77">
    <path clip-path="url(#p408d061bda)" d="M 311.149375 307.584 
L 316.584115 307.584 
L 316.584115 259.835517 
L 311.149375 259.835517 
z
" style="fill:#ff7f0e;opacity:0.5;"/>
   </g>
   <g id="patch_78">
    <path clip-path="url(#p408d061bda)" d="M 316.584115 307.584 
L 322.018856 307.584 
L 322.018856 269.674817 
L 316.584115 269.674817 
z
" style="fill:#ff7f0e;opacity:0.5;"/>
   </g>
   <g id="patch_79">
    <path clip-path="url(#p408d061bda)" d="M 322.018856 307.584 
L 327.453596 307.584 
L 327.453596 278.549866 
L 322.018856 278.549866 
z
" style="fill:#ff7f0e;opacity:0.5;"/>
   </g>
   <g id="patch_80">
    <path clip-path="url(#p408d061bda)" d="M 327.453596 307.584 
L 332.888337 307.584 
L 332.888337 285.196313 
L 327.453596 285.196313 
z
" style="fill:#ff7f0e;opacity:0.5;"/>
   </g>
   <g id="patch_81">
    <path clip-path="url(#p408d061bda)" d="M 332.888337 307.584 
L 338.323077 307.584 
L 338.323077 290.670243 
L 332.888337 290.670243 
z
" style="fill:#ff7f0e;opacity:0.5;"/>
   </g>
   <g id="patch_82">
    <path clip-path="url(#p408d061bda)" d="M 338.323077 307.584 
L 343.757818 307.584 
L 343.757818 294.614163 
L 338.323077 294.614163 
z
" style="fill:#ff7f0e;opacity:0.5;"/>
   </g>
   <g id="patch_83">
    <path clip-path="url(#p408d061bda)" d="M 343.757818 307.584 
L 349.192558 307.584 
L 349.192558 298.018561 
L 343.757818 298.018561 
z
" style="fill:#ff7f0e;opacity:0.5;"/>
   </g>
   <g id="patch_84">
    <path clip-path="url(#p408d061bda)" d="M 349.192558 307.584 
L 354.627299 307.584 
L 354.627299 300.678451 
L 349.192558 300.678451 
z
" style="fill:#ff7f0e;opacity:0.5;"/>
   </g>
   <g id="patch_85">
    <path clip-path="url(#p408d061bda)" d="M 354.627299 307.584 
L 360.062039 307.584 
L 360.062039 302.52988 
L 354.627299 302.52988 
z
" style="fill:#ff7f0e;opacity:0.5;"/>
   </g>
   <g id="patch_86">
    <path clip-path="url(#p408d061bda)" d="M 360.062039 307.584 
L 365.49678 307.584 
L 365.49678 303.815548 
L 360.062039 303.815548 
z
" style="fill:#ff7f0e;opacity:0.5;"/>
   </g>
   <g id="patch_87">
    <path clip-path="url(#p408d061bda)" d="M 365.49678 307.584 
L 370.93152 307.584 
L 370.93152 304.792919 
L 365.49678 304.792919 
z
" style="fill:#ff7f0e;opacity:0.5;"/>
   </g>
   <g id="patch_88">
    <path clip-path="url(#p408d061bda)" d="M 370.93152 307.584 
L 376.366261 307.584 
L 376.366261 305.532506 
L 370.93152 305.532506 
z
" style="fill:#ff7f0e;opacity:0.5;"/>
   </g>
   <g id="patch_89">
    <path clip-path="url(#p408d061bda)" d="M 376.366261 307.584 
L 381.801001 307.584 
L 381.801001 306.145822 
L 376.366261 306.145822 
z
" style="fill:#ff7f0e;opacity:0.5;"/>
   </g>
   <g id="patch_90">
    <path clip-path="url(#p408d061bda)" d="M 381.801001 307.584 
L 387.235742 307.584 
L 387.235742 306.437722 
L 381.801001 306.437722 
z
" style="fill:#ff7f0e;opacity:0.5;"/>
   </g>
   <g id="patch_91">
    <path clip-path="url(#p408d061bda)" d="M 387.235742 307.584 
L 392.670482 307.584 
L 392.670482 306.691903 
L 387.235742 306.691903 
z
" style="fill:#ff7f0e;opacity:0.5;"/>
   </g>
   <g id="patch_92">
    <path clip-path="url(#p408d061bda)" d="M 392.670482 307.584 
L 398.105223 307.584 
L 398.105223 306.901809 
L 392.670482 306.901809 
z
" style="fill:#ff7f0e;opacity:0.5;"/>
   </g>
   <g id="patch_93">
    <path clip-path="url(#p408d061bda)" d="M 398.105223 307.584 
L 403.539964 307.584 
L 403.539964 306.969044 
L 398.105223 306.969044 
z
" style="fill:#ff7f0e;opacity:0.5;"/>
   </g>
   <g id="patch_94">
    <path clip-path="url(#p408d061bda)" d="M 403.539964 307.584 
L 408.974704 307.584 
L 408.974704 307.126473 
L 403.539964 307.126473 
z
" style="fill:#ff7f0e;opacity:0.5;"/>
   </g>
   <g id="patch_95">
    <path clip-path="url(#p408d061bda)" d="M 408.974704 307.584 
L 414.409445 307.584 
L 414.409445 307.249464 
L 408.974704 307.249464 
z
" style="fill:#ff7f0e;opacity:0.5;"/>
   </g>
   <g id="patch_96">
    <path clip-path="url(#p408d061bda)" d="M 414.409445 307.584 
L 419.844185 307.584 
L 419.844185 307.328178 
L 414.409445 307.328178 
z
" style="fill:#ff7f0e;opacity:0.5;"/>
   </g>
   <g id="patch_97">
    <path clip-path="url(#p408d061bda)" d="M 419.844185 307.584 
L 425.278926 307.584 
L 425.278926 307.331458 
L 419.844185 307.331458 
z
" style="fill:#ff7f0e;opacity:0.5;"/>
   </g>
   <g id="patch_98">
    <path clip-path="url(#p408d061bda)" d="M 425.278926 307.584 
L 430.713666 307.584 
L 430.713666 307.400333 
L 425.278926 307.400333 
z
" style="fill:#ff7f0e;opacity:0.5;"/>
   </g>
   <g id="patch_99">
    <path clip-path="url(#p408d061bda)" d="M 430.713666 307.584 
L 436.148407 307.584 
L 436.148407 307.413452 
L 430.713666 307.413452 
z
" style="fill:#ff7f0e;opacity:0.5;"/>
   </g>
   <g id="patch_100">
    <path clip-path="url(#p408d061bda)" d="M 436.148407 307.584 
L 441.583147 307.584 
L 441.583147 307.477408 
L 436.148407 307.477408 
z
" style="fill:#ff7f0e;opacity:0.5;"/>
   </g>
   <g id="patch_101">
    <path clip-path="url(#p408d061bda)" d="M 441.583147 307.584 
L 447.017888 307.584 
L 447.017888 307.454449 
L 441.583147 307.454449 
z
" style="fill:#ff7f0e;opacity:0.5;"/>
   </g>
   <g id="patch_102">
    <path clip-path="url(#p408d061bda)" d="M 447.017888 307.584 
L 452.452628 307.584 
L 452.452628 307.482327 
L 447.017888 307.482327 
z
" style="fill:#ff7f0e;opacity:0.5;"/>
   </g>
   <g id="patch_103">
    <path clip-path="url(#p408d061bda)" d="M 452.452628 307.584 
L 457.887369 307.584 
L 457.887369 307.503646 
L 452.452628 307.503646 
z
" style="fill:#ff7f0e;opacity:0.5;"/>
   </g>
   <g id="patch_104">
    <path clip-path="url(#p408d061bda)" d="M 457.887369 307.584 
L 463.322109 307.584 
L 463.322109 307.546283 
L 457.887369 307.546283 
z
" style="fill:#ff7f0e;opacity:0.5;"/>
   </g>
   <g id="patch_105">
    <path clip-path="url(#p408d061bda)" d="M 463.322109 307.584 
L 468.75685 307.584 
L 468.75685 307.534804 
L 463.322109 307.534804 
z
" style="fill:#ff7f0e;opacity:0.5;"/>
   </g>
   <g id="patch_106">
    <path clip-path="url(#p408d061bda)" d="M 468.75685 307.584 
L 474.19159 307.584 
L 474.19159 307.544643 
L 468.75685 307.544643 
z
" style="fill:#ff7f0e;opacity:0.5;"/>
   </g>
   <g id="patch_107">
    <path clip-path="url(#p408d061bda)" d="M 474.19159 307.584 
L 479.626331 307.584 
L 479.626331 307.543003 
L 474.19159 307.543003 
z
" style="fill:#ff7f0e;opacity:0.5;"/>
   </g>
   <g id="patch_108">
    <path clip-path="url(#p408d061bda)" d="M 479.626331 307.584 
L 485.061071 307.584 
L 485.061071 307.562682 
L 479.626331 307.562682 
z
" style="fill:#ff7f0e;opacity:0.5;"/>
   </g>
   <g id="patch_109">
    <path clip-path="url(#p408d061bda)" d="M 485.061071 307.584 
L 490.495812 307.584 
L 490.495812 307.561042 
L 485.061071 307.561042 
z
" style="fill:#ff7f0e;opacity:0.5;"/>
   </g>
   <g id="patch_110">
    <path clip-path="url(#p408d061bda)" d="M 490.495812 307.584 
L 495.930552 307.584 
L 495.930552 307.570881 
L 490.495812 307.570881 
z
" style="fill:#ff7f0e;opacity:0.5;"/>
   </g>
   <g id="patch_111">
    <path clip-path="url(#p408d061bda)" d="M 495.930552 307.584 
L 501.365293 307.584 
L 501.365293 307.569241 
L 495.930552 307.569241 
z
" style="fill:#ff7f0e;opacity:0.5;"/>
   </g>
   <g id="patch_112">
    <path clip-path="url(#p408d061bda)" d="M 501.365293 307.584 
L 506.800033 307.584 
L 506.800033 307.575801 
L 501.365293 307.575801 
z
" style="fill:#ff7f0e;opacity:0.5;"/>
   </g>
   <g id="patch_113">
    <path clip-path="url(#p408d061bda)" d="M 506.800033 307.584 
L 512.234774 307.584 
L 512.234774 307.57744 
L 506.800033 307.57744 
z
" style="fill:#ff7f0e;opacity:0.5;"/>
   </g>
   <g id="patch_114">
    <path clip-path="url(#p408d061bda)" d="M 512.234774 307.584 
L 517.669514 307.584 
L 517.669514 307.57744 
L 512.234774 307.57744 
z
" style="fill:#ff7f0e;opacity:0.5;"/>
   </g>
   <g id="patch_115">
    <path clip-path="url(#p408d061bda)" d="M 517.669514 307.584 
L 523.104255 307.584 
L 523.104255 307.58072 
L 517.669514 307.58072 
z
" style="fill:#ff7f0e;opacity:0.5;"/>
   </g>
   <g id="patch_116">
    <path clip-path="url(#p408d061bda)" d="M 523.104255 307.584 
L 528.538995 307.584 
L 528.538995 307.57908 
L 523.104255 307.57908 
z
" style="fill:#ff7f0e;opacity:0.5;"/>
   </g>
   <g id="patch_117">
    <path clip-path="url(#p408d061bda)" d="M 528.538995 307.584 
L 533.973736 307.584 
L 533.973736 307.58072 
L 528.538995 307.58072 
z
" style="fill:#ff7f0e;opacity:0.5;"/>
   </g>
   <g id="patch_118">
    <path clip-path="url(#p408d061bda)" d="M 533.973736 307.584 
L 539.408476 307.584 
L 539.408476 307.57744 
L 533.973736 307.57744 
z
" style="fill:#ff7f0e;opacity:0.5;"/>
   </g>
   <g id="patch_119">
    <path clip-path="url(#p408d061bda)" d="M 539.408476 307.584 
L 544.843217 307.584 
L 544.843217 307.58072 
L 539.408476 307.58072 
z
" style="fill:#ff7f0e;opacity:0.5;"/>
   </g>
   <g id="patch_120">
    <path clip-path="url(#p408d061bda)" d="M 544.843217 307.584 
L 550.277957 307.584 
L 550.277957 307.58236 
L 544.843217 307.58236 
z
" style="fill:#ff7f0e;opacity:0.5;"/>
   </g>
   <g id="patch_121">
    <path clip-path="url(#p408d061bda)" d="M 550.277957 307.584 
L 555.712698 307.584 
L 555.712698 307.584 
L 550.277957 307.584 
z
" style="fill:#ff7f0e;opacity:0.5;"/>
   </g>
   <g id="patch_122">
    <path clip-path="url(#p408d061bda)" d="M 555.712698 307.584 
L 561.147439 307.584 
L 561.147439 307.58072 
L 555.712698 307.58072 
z
" style="fill:#ff7f0e;opacity:0.5;"/>
   </g>
   <g id="patch_123">
    <path clip-path="url(#p408d061bda)" d="M 15.151606 307.584 
L 18.748985 307.584 
L 18.748985 307.581398 
L 15.151606 307.581398 
z
" style="fill:#2ca02c;opacity:0.5;"/>
   </g>
   <g id="patch_124">
    <path clip-path="url(#p408d061bda)" d="M 18.748985 307.584 
L 22.346364 307.584 
L 22.346364 307.584 
L 18.748985 307.584 
z
" style="fill:#2ca02c;opacity:0.5;"/>
   </g>
   <g id="patch_125">
    <path clip-path="url(#p408d061bda)" d="M 22.346364 307.584 
L 25.943743 307.584 
L 25.943743 307.584 
L 22.346364 307.584 
z
" style="fill:#2ca02c;opacity:0.5;"/>
   </g>
   <g id="patch_126">
    <path clip-path="url(#p408d061bda)" d="M 25.943743 307.584 
L 29.541122 307.584 
L 29.541122 307.584 
L 25.943743 307.584 
z
" style="fill:#2ca02c;opacity:0.5;"/>
   </g>
   <g id="patch_127">
    <path clip-path="url(#p408d061bda)" d="M 29.541122 307.584 
L 33.138501 307.584 
L 33.138501 307.576194 
L 29.541122 307.576194 
z
" style="fill:#2ca02c;opacity:0.5;"/>
   </g>
   <g id="patch_128">
    <path clip-path="url(#p408d061bda)" d="M 33.138501 307.584 
L 36.735881 307.584 
L 36.735881 307.584 
L 33.138501 307.584 
z
" style="fill:#2ca02c;opacity:0.5;"/>
   </g>
   <g id="patch_129">
    <path clip-path="url(#p408d061bda)" d="M 36.735881 307.584 
L 40.33326 307.584 
L 40.33326 307.573592 
L 36.735881 307.573592 
z
" style="fill:#2ca02c;opacity:0.5;"/>
   </g>
   <g id="patch_130">
    <path clip-path="url(#p408d061bda)" d="M 40.33326 307.584 
L 43.930639 307.584 
L 43.930639 307.573592 
L 40.33326 307.573592 
z
" style="fill:#2ca02c;opacity:0.5;"/>
   </g>
   <g id="patch_131">
    <path clip-path="url(#p408d061bda)" d="M 43.930639 307.584 
L 47.528018 307.584 
L 47.528018 307.576194 
L 43.930639 307.576194 
z
" style="fill:#2ca02c;opacity:0.5;"/>
   </g>
   <g id="patch_132">
    <path clip-path="url(#p408d061bda)" d="M 47.528018 307.584 
L 51.125397 307.584 
L 51.125397 307.578796 
L 47.528018 307.578796 
z
" style="fill:#2ca02c;opacity:0.5;"/>
   </g>
   <g id="patch_133">
    <path clip-path="url(#p408d061bda)" d="M 51.125397 307.584 
L 54.722776 307.584 
L 54.722776 307.57099 
L 51.125397 307.57099 
z
" style="fill:#2ca02c;opacity:0.5;"/>
   </g>
   <g id="patch_134">
    <path clip-path="url(#p408d061bda)" d="M 54.722776 307.584 
L 58.320155 307.584 
L 58.320155 307.568388 
L 54.722776 307.568388 
z
" style="fill:#2ca02c;opacity:0.5;"/>
   </g>
   <g id="patch_135">
    <path clip-path="url(#p408d061bda)" d="M 58.320155 307.584 
L 61.917534 307.584 
L 61.917534 307.552776 
L 58.320155 307.552776 
z
" style="fill:#2ca02c;opacity:0.5;"/>
   </g>
   <g id="patch_136">
    <path clip-path="url(#p408d061bda)" d="M 61.917534 307.584 
L 65.514913 307.584 
L 65.514913 307.513747 
L 61.917534 307.513747 
z
" style="fill:#2ca02c;opacity:0.5;"/>
   </g>
   <g id="patch_137">
    <path clip-path="url(#p408d061bda)" d="M 65.514913 307.584 
L 69.112293 307.584 
L 69.112293 307.505941 
L 65.514913 307.505941 
z
" style="fill:#2ca02c;opacity:0.5;"/>
   </g>
   <g id="patch_138">
    <path clip-path="url(#p408d061bda)" d="M 69.112293 307.584 
L 72.709672 307.584 
L 72.709672 307.461707 
L 69.112293 307.461707 
z
" style="fill:#2ca02c;opacity:0.5;"/>
   </g>
   <g id="patch_139">
    <path clip-path="url(#p408d061bda)" d="M 72.709672 307.584 
L 76.307051 307.584 
L 76.307051 307.42528 
L 72.709672 307.42528 
z
" style="fill:#2ca02c;opacity:0.5;"/>
   </g>
   <g id="patch_140">
    <path clip-path="url(#p408d061bda)" d="M 76.307051 307.584 
L 79.90443 307.584 
L 79.90443 307.36023 
L 76.307051 307.36023 
z
" style="fill:#2ca02c;opacity:0.5;"/>
   </g>
   <g id="patch_141">
    <path clip-path="url(#p408d061bda)" d="M 79.90443 307.584 
L 83.501809 307.584 
L 83.501809 307.253549 
L 79.90443 307.253549 
z
" style="fill:#2ca02c;opacity:0.5;"/>
   </g>
   <g id="patch_142">
    <path clip-path="url(#p408d061bda)" d="M 83.501809 307.584 
L 87.099188 307.584 
L 87.099188 307.191102 
L 83.501809 307.191102 
z
" style="fill:#2ca02c;opacity:0.5;"/>
   </g>
   <g id="patch_143">
    <path clip-path="url(#p408d061bda)" d="M 87.099188 307.584 
L 90.696567 307.584 
L 90.696567 307.034983 
L 87.099188 307.034983 
z
" style="fill:#2ca02c;opacity:0.5;"/>
   </g>
   <g id="patch_144">
    <path clip-path="url(#p408d061bda)" d="M 90.696567 307.584 
L 94.293946 307.584 
L 94.293946 306.798204 
L 90.696567 306.798204 
z
" style="fill:#2ca02c;opacity:0.5;"/>
   </g>
   <g id="patch_145">
    <path clip-path="url(#p408d061bda)" d="M 94.293946 307.584 
L 97.891325 307.584 
L 97.891325 306.478161 
L 94.293946 306.478161 
z
" style="fill:#2ca02c;opacity:0.5;"/>
   </g>
   <g id="patch_146">
    <path clip-path="url(#p408d061bda)" d="M 97.891325 307.584 
L 101.488705 307.584 
L 101.488705 306.327246 
L 97.891325 306.327246 
z
" style="fill:#2ca02c;opacity:0.5;"/>
   </g>
   <g id="patch_147">
    <path clip-path="url(#p408d061bda)" d="M 101.488705 307.584 
L 105.086084 307.584 
L 105.086084 305.757414 
L 101.488705 305.757414 
z
" style="fill:#2ca02c;opacity:0.5;"/>
   </g>
   <g id="patch_148">
    <path clip-path="url(#p408d061bda)" d="M 105.086084 307.584 
L 108.683463 307.584 
L 108.683463 305.411351 
L 105.086084 305.411351 
z
" style="fill:#2ca02c;opacity:0.5;"/>
   </g>
   <g id="patch_149">
    <path clip-path="url(#p408d061bda)" d="M 108.683463 307.584 
L 112.280842 307.584 
L 112.280842 304.534486 
L 108.683463 304.534486 
z
" style="fill:#2ca02c;opacity:0.5;"/>
   </g>
   <g id="patch_150">
    <path clip-path="url(#p408d061bda)" d="M 112.280842 307.584 
L 115.878221 307.584 
L 115.878221 303.779913 
L 112.280842 303.779913 
z
" style="fill:#2ca02c;opacity:0.5;"/>
   </g>
   <g id="patch_151">
    <path clip-path="url(#p408d061bda)" d="M 115.878221 307.584 
L 119.4756 307.584 
L 119.4756 302.811978 
L 115.878221 302.811978 
z
" style="fill:#2ca02c;opacity:0.5;"/>
   </g>
   <g id="patch_152">
    <path clip-path="url(#p408d061bda)" d="M 119.4756 307.584 
L 123.072979 307.584 
L 123.072979 301.464155 
L 119.4756 301.464155 
z
" style="fill:#2ca02c;opacity:0.5;"/>
   </g>
   <g id="patch_153">
    <path clip-path="url(#p408d061bda)" d="M 123.072979 307.584 
L 126.670358 307.584 
L 126.670358 299.944602 
L 123.072979 299.944602 
z
" style="fill:#2ca02c;opacity:0.5;"/>
   </g>
   <g id="patch_154">
    <path clip-path="url(#p408d061bda)" d="M 126.670358 307.584 
L 130.267737 307.584 
L 130.267737 297.857819 
L 126.670358 297.857819 
z
" style="fill:#2ca02c;opacity:0.5;"/>
   </g>
   <g id="patch_155">
    <path clip-path="url(#p408d061bda)" d="M 130.267737 307.584 
L 133.865117 307.584 
L 133.865117 295.973989 
L 130.267737 295.973989 
z
" style="fill:#2ca02c;opacity:0.5;"/>
   </g>
   <g id="patch_156">
    <path clip-path="url(#p408d061bda)" d="M 133.865117 307.584 
L 137.462496 307.584 
L 137.462496 293.054573 
L 133.865117 293.054573 
z
" style="fill:#2ca02c;opacity:0.5;"/>
   </g>
   <g id="patch_157">
    <path clip-path="url(#p408d061bda)" d="M 137.462496 307.584 
L 141.059875 307.584 
L 141.059875 289.606957 
L 137.462496 289.606957 
z
" style="fill:#2ca02c;opacity:0.5;"/>
   </g>
   <g id="patch_158">
    <path clip-path="url(#p408d061bda)" d="M 141.059875 307.584 
L 144.657254 307.584 
L 144.657254 286.003222 
L 141.059875 286.003222 
z
" style="fill:#2ca02c;opacity:0.5;"/>
   </g>
   <g id="patch_159">
    <path clip-path="url(#p408d061bda)" d="M 144.657254 307.584 
L 148.254633 307.584 
L 148.254633 281.533029 
L 144.657254 281.533029 
z
" style="fill:#2ca02c;opacity:0.5;"/>
   </g>
   <g id="patch_160">
    <path clip-path="url(#p408d061bda)" d="M 148.254633 307.584 
L 151.852012 307.584 
L 151.852012 276.06628 
L 148.254633 276.06628 
z
" style="fill:#2ca02c;opacity:0.5;"/>
   </g>
   <g id="patch_161">
    <path clip-path="url(#p408d061bda)" d="M 151.852012 307.584 
L 155.449391 307.584 
L 155.449391 270.737436 
L 151.852012 270.737436 
z
" style="fill:#2ca02c;opacity:0.5;"/>
   </g>
   <g id="patch_162">
    <path clip-path="url(#p408d061bda)" d="M 155.449391 307.584 
L 159.04677 307.584 
L 159.04677 263.714706 
L 155.449391 263.714706 
z
" style="fill:#2ca02c;opacity:0.5;"/>
   </g>
   <g id="patch_163">
    <path clip-path="url(#p408d061bda)" d="M 159.04677 307.584 
L 162.644149 307.584 
L 162.644149 256.194999 
L 159.04677 256.194999 
z
" style="fill:#2ca02c;opacity:0.5;"/>
   </g>
   <g id="patch_164">
    <path clip-path="url(#p408d061bda)" d="M 162.644149 307.584 
L 166.241529 307.584 
L 166.241529 248.074236 
L 162.644149 248.074236 
z
" style="fill:#2ca02c;opacity:0.5;"/>
   </g>
   <g id="patch_165">
    <path clip-path="url(#p408d061bda)" d="M 166.241529 307.584 
L 169.838908 307.584 
L 169.838908 238.65769 
L 166.241529 238.65769 
z
" style="fill:#2ca02c;opacity:0.5;"/>
   </g>
   <g id="patch_166">
    <path clip-path="url(#p408d061bda)" d="M 169.838908 307.584 
L 173.436287 307.584 
L 173.436287 229.980104 
L 169.838908 229.980104 
z
" style="fill:#2ca02c;opacity:0.5;"/>
   </g>
   <g id="patch_167">
    <path clip-path="url(#p408d061bda)" d="M 173.436287 307.584 
L 177.033666 307.584 
L 177.033666 218.729165 
L 173.436287 218.729165 
z
" style="fill:#2ca02c;opacity:0.5;"/>
   </g>
   <g id="patch_168">
    <path clip-path="url(#p408d061bda)" d="M 177.033666 307.584 
L 180.631045 307.584 
L 180.631045 207.483431 
L 177.033666 207.483431 
z
" style="fill:#2ca02c;opacity:0.5;"/>
   </g>
   <g id="patch_169">
    <path clip-path="url(#p408d061bda)" d="M 180.631045 307.584 
L 184.228424 307.584 
L 184.228424 195.282771 
L 180.631045 195.282771 
z
" style="fill:#2ca02c;opacity:0.5;"/>
   </g>
   <g id="patch_170">
    <path clip-path="url(#p408d061bda)" d="M 184.228424 307.584 
L 187.825803 307.584 
L 187.825803 182.746457 
L 184.228424 182.746457 
z
" style="fill:#2ca02c;opacity:0.5;"/>
   </g>
   <g id="patch_171">
    <path clip-path="url(#p408d061bda)" d="M 187.825803 307.584 
L 191.423182 307.584 
L 191.423182 169.804235 
L 187.825803 169.804235 
z
" style="fill:#2ca02c;opacity:0.5;"/>
   </g>
   <g id="patch_172">
    <path clip-path="url(#p408d061bda)" d="M 191.423182 307.584 
L 195.020561 307.584 
L 195.020561 157.551536 
L 191.423182 157.551536 
z
" style="fill:#2ca02c;opacity:0.5;"/>
   </g>
   <g id="patch_173">
    <path clip-path="url(#p408d061bda)" d="M 195.020561 307.584 
L 198.617941 307.584 
L 198.617941 144.390748 
L 195.020561 144.390748 
z
" style="fill:#2ca02c;opacity:0.5;"/>
   </g>
   <g id="patch_174">
    <path clip-path="url(#p408d061bda)" d="M 198.617941 307.584 
L 202.21532 307.584 
L 202.21532 130.592476 
L 198.617941 130.592476 
z
" style="fill:#2ca02c;opacity:0.5;"/>
   </g>
   <g id="patch_175">
    <path clip-path="url(#p408d061bda)" d="M 202.21532 307.584 
L 205.812699 307.584 
L 205.812699 118.266922 
L 202.21532 118.266922 
z
" style="fill:#2ca02c;opacity:0.5;"/>
   </g>
   <g id="patch_176">
    <path clip-path="url(#p408d061bda)" d="M 205.812699 307.584 
L 209.410078 307.584 
L 209.410078 107.294394 
L 205.812699 107.294394 
z
" style="fill:#2ca02c;opacity:0.5;"/>
   </g>
   <g id="patch_177">
    <path clip-path="url(#p408d061bda)" d="M 209.410078 307.584 
L 213.007457 307.584 
L 213.007457 95.848307 
L 209.410078 95.848307 
z
" style="fill:#2ca02c;opacity:0.5;"/>
   </g>
   <g id="patch_178">
    <path clip-path="url(#p408d061bda)" d="M 213.007457 307.584 
L 216.604836 307.584 
L 216.604836 85.893152 
L 213.007457 85.893152 
z
" style="fill:#2ca02c;opacity:0.5;"/>
   </g>
   <g id="patch_179">
    <path clip-path="url(#p408d061bda)" d="M 216.604836 307.584 
L 220.202215 307.584 
L 220.202215 75.058529 
L 216.604836 75.058529 
z
" style="fill:#2ca02c;opacity:0.5;"/>
   </g>
   <g id="patch_180">
    <path clip-path="url(#p408d061bda)" d="M 220.202215 307.584 
L 223.799594 307.584 
L 223.799594 67.754786 
L 220.202215 67.754786 
z
" style="fill:#2ca02c;opacity:0.5;"/>
   </g>
   <g id="patch_181">
    <path clip-path="url(#p408d061bda)" d="M 223.799594 307.584 
L 227.396974 307.584 
L 227.396974 62.725169 
L 223.799594 62.725169 
z
" style="fill:#2ca02c;opacity:0.5;"/>
   </g>
   <g id="patch_182">
    <path clip-path="url(#p408d061bda)" d="M 227.396974 307.584 
L 230.994353 307.584 
L 230.994353 57.591473 
L 227.396974 57.591473 
z
" style="fill:#2ca02c;opacity:0.5;"/>
   </g>
   <g id="patch_183">
    <path clip-path="url(#p408d061bda)" d="M 230.994353 307.584 
L 234.591732 307.584 
L 234.591732 56.147377 
L 230.994353 56.147377 
z
" style="fill:#2ca02c;opacity:0.5;"/>
   </g>
   <g id="patch_184">
    <path clip-path="url(#p408d061bda)" d="M 234.591732 307.584 
L 238.189111 307.584 
L 238.189111 54.862002 
L 234.591732 54.862002 
z
" style="fill:#2ca02c;opacity:0.5;"/>
   </g>
   <g id="patch_185">
    <path clip-path="url(#p408d061bda)" d="M 238.189111 307.584 
L 241.78649 307.584 
L 241.78649 54.731903 
L 238.189111 54.731903 
z
" style="fill:#2ca02c;opacity:0.5;"/>
   </g>
   <g id="patch_186">
    <path clip-path="url(#p408d061bda)" d="M 241.78649 307.584 
L 245.383869 307.584 
L 245.383869 58.796187 
L 241.78649 58.796187 
z
" style="fill:#2ca02c;opacity:0.5;"/>
   </g>
   <g id="patch_187">
    <path clip-path="url(#p408d061bda)" d="M 245.383869 307.584 
L 248.981248 307.584 
L 248.981248 62.600274 
L 245.383869 62.600274 
z
" style="fill:#2ca02c;opacity:0.5;"/>
   </g>
   <g id="patch_188">
    <path clip-path="url(#p408d061bda)" d="M 248.981248 307.584 
L 252.578627 307.584 
L 252.578627 67.879681 
L 248.981248 67.879681 
z
" style="fill:#2ca02c;opacity:0.5;"/>
   </g>
   <g id="patch_189">
    <path clip-path="url(#p408d061bda)" d="M 252.578627 307.584 
L 256.176006 307.584 
L 256.176006 77.111487 
L 252.578627 77.111487 
z
" style="fill:#2ca02c;opacity:0.5;"/>
   </g>
   <g id="patch_190">
    <path clip-path="url(#p408d061bda)" d="M 256.176006 307.584 
L 259.773386 307.584 
L 259.773386 84.516707 
L 256.176006 84.516707 
z
" style="fill:#2ca02c;opacity:0.5;"/>
   </g>
   <g id="patch_191">
    <path clip-path="url(#p408d061bda)" d="M 259.773386 307.584 
L 263.370765 307.584 
L 263.370765 96.43115 
L 259.773386 96.43115 
z
" style="fill:#2ca02c;opacity:0.5;"/>
   </g>
   <g id="patch_192">
    <path clip-path="url(#p408d061bda)" d="M 263.370765 307.584 
L 266.968144 307.584 
L 266.968144 107.195519 
L 263.370765 107.195519 
z
" style="fill:#2ca02c;opacity:0.5;"/>
   </g>
   <g id="patch_193">
    <path clip-path="url(#p408d061bda)" d="M 266.968144 307.584 
L 270.565523 307.584 
L 270.565523 119.809893 
L 266.968144 119.809893 
z
" style="fill:#2ca02c;opacity:0.5;"/>
   </g>
   <g id="patch_194">
    <path clip-path="url(#p408d061bda)" d="M 270.565523 307.584 
L 274.162902 307.584 
L 274.162902 132.916039 
L 270.565523 132.916039 
z
" style="fill:#2ca02c;opacity:0.5;"/>
   </g>
   <g id="patch_195">
    <path clip-path="url(#p408d061bda)" d="M 274.162902 307.584 
L 277.760281 307.584 
L 277.760281 145.317051 
L 274.162902 145.317051 
z
" style="fill:#2ca02c;opacity:0.5;"/>
   </g>
   <g id="patch_196">
    <path clip-path="url(#p408d061bda)" d="M 277.760281 307.584 
L 281.35766 307.584 
L 281.35766 158.745842 
L 277.760281 158.745842 
z
" style="fill:#2ca02c;opacity:0.5;"/>
   </g>
   <g id="patch_197">
    <path clip-path="url(#p408d061bda)" d="M 281.35766 307.584 
L 284.955039 307.584 
L 284.955039 173.389756 
L 281.35766 173.389756 
z
" style="fill:#2ca02c;opacity:0.5;"/>
   </g>
   <g id="patch_198">
    <path clip-path="url(#p408d061bda)" d="M 284.955039 307.584 
L 288.552418 307.584 
L 288.552418 184.638093 
L 284.955039 184.638093 
z
" style="fill:#2ca02c;opacity:0.5;"/>
   </g>
   <g id="patch_199">
    <path clip-path="url(#p408d061bda)" d="M 288.552418 307.584 
L 292.149798 307.584 
L 292.149798 196.495291 
L 288.552418 196.495291 
z
" style="fill:#2ca02c;opacity:0.5;"/>
   </g>
   <g id="patch_200">
    <path clip-path="url(#p408d061bda)" d="M 292.149798 307.584 
L 295.747177 307.584 
L 295.747177 208.599678 
L 292.149798 208.599678 
z
" style="fill:#2ca02c;opacity:0.5;"/>
   </g>
   <g id="patch_201">
    <path clip-path="url(#p408d061bda)" d="M 295.747177 307.584 
L 299.344556 307.584 
L 299.344556 219.379659 
L 295.747177 219.379659 
z
" style="fill:#2ca02c;opacity:0.5;"/>
   </g>
   <g id="patch_202">
    <path clip-path="url(#p408d061bda)" d="M 299.344556 307.584 
L 302.941935 307.584 
L 302.941935 230.625394 
L 299.344556 230.625394 
z
" style="fill:#2ca02c;opacity:0.5;"/>
   </g>
   <g id="patch_203">
    <path clip-path="url(#p408d061bda)" d="M 302.941935 307.584 
L 306.539314 307.584 
L 306.539314 239.513739 
L 302.941935 239.513739 
z
" style="fill:#2ca02c;opacity:0.5;"/>
   </g>
   <g id="patch_204">
    <path clip-path="url(#p408d061bda)" d="M 306.539314 307.584 
L 310.136693 307.584 
L 310.136693 248.422901 
L 306.539314 248.422901 
z
" style="fill:#2ca02c;opacity:0.5;"/>
   </g>
   <g id="patch_205">
    <path clip-path="url(#p408d061bda)" d="M 310.136693 307.584 
L 313.734072 307.584 
L 313.734072 257.498589 
L 310.136693 257.498589 
z
" style="fill:#2ca02c;opacity:0.5;"/>
   </g>
   <g id="patch_206">
    <path clip-path="url(#p408d061bda)" d="M 313.734072 307.584 
L 317.331451 307.584 
L 317.331451 264.495299 
L 313.734072 264.495299 
z
" style="fill:#2ca02c;opacity:0.5;"/>
   </g>
   <g id="patch_207">
    <path clip-path="url(#p408d061bda)" d="M 317.331451 307.584 
L 320.92883 307.584 
L 320.92883 270.633357 
L 317.331451 270.633357 
z
" style="fill:#2ca02c;opacity:0.5;"/>
   </g>
   <g id="patch_208">
    <path clip-path="url(#p408d061bda)" d="M 320.92883 307.584 
L 324.52621 307.584 
L 324.52621 277.002991 
L 320.92883 277.002991 
z
" style="fill:#2ca02c;opacity:0.5;"/>
   </g>
   <g id="patch_209">
    <path clip-path="url(#p408d061bda)" d="M 324.52621 307.584 
L 328.123589 307.584 
L 328.123589 282.027404 
L 324.52621 282.027404 
z
" style="fill:#2ca02c;opacity:0.5;"/>
   </g>
   <g id="patch_210">
    <path clip-path="url(#p408d061bda)" d="M 328.123589 307.584 
L 331.720968 307.584 
L 331.720968 286.424742 
L 328.123589 286.424742 
z
" style="fill:#2ca02c;opacity:0.5;"/>
   </g>
   <g id="patch_211">
    <path clip-path="url(#p408d061bda)" d="M 331.720968 307.584 
L 335.318347 307.584 
L 335.318347 290.371937 
L 331.720968 290.371937 
z
" style="fill:#2ca02c;opacity:0.5;"/>
   </g>
   <g id="patch_212">
    <path clip-path="url(#p408d061bda)" d="M 335.318347 307.584 
L 338.915726 307.584 
L 338.915726 293.119623 
L 335.318347 293.119623 
z
" style="fill:#2ca02c;opacity:0.5;"/>
   </g>
   <g id="patch_213">
    <path clip-path="url(#p408d061bda)" d="M 338.915726 307.584 
L 342.513105 307.584 
L 342.513105 295.742413 
L 338.915726 295.742413 
z
" style="fill:#2ca02c;opacity:0.5;"/>
   </g>
   <g id="patch_214">
    <path clip-path="url(#p408d061bda)" d="M 342.513105 307.584 
L 346.110484 307.584 
L 346.110484 298.224697 
L 342.513105 298.224697 
z
" style="fill:#2ca02c;opacity:0.5;"/>
   </g>
   <g id="patch_215">
    <path clip-path="url(#p408d061bda)" d="M 346.110484 307.584 
L 349.707863 307.584 
L 349.707863 299.92899 
L 346.110484 299.92899 
z
" style="fill:#2ca02c;opacity:0.5;"/>
   </g>
   <g id="patch_216">
    <path clip-path="url(#p408d061bda)" d="M 349.707863 307.584 
L 353.305242 307.584 
L 353.305242 301.867462 
L 349.707863 301.867462 
z
" style="fill:#2ca02c;opacity:0.5;"/>
   </g>
   <g id="patch_217">
    <path clip-path="url(#p408d061bda)" d="M 353.305242 307.584 
L 356.902622 307.584 
L 356.902622 302.973301 
L 353.305242 302.973301 
z
" style="fill:#2ca02c;opacity:0.5;"/>
   </g>
   <g id="patch_218">
    <path clip-path="url(#p408d061bda)" d="M 356.902622 307.584 
L 360.500001 307.584 
L 360.500001 304.04011 
L 356.902622 304.04011 
z
" style="fill:#2ca02c;opacity:0.5;"/>
   </g>
   <g id="patch_219">
    <path clip-path="url(#p408d061bda)" d="M 360.500001 307.584 
L 364.09738 307.584 
L 364.09738 304.760857 
L 360.500001 304.760857 
z
" style="fill:#2ca02c;opacity:0.5;"/>
   </g>
   <g id="patch_220">
    <path clip-path="url(#p408d061bda)" d="M 364.09738 307.584 
L 367.694759 307.584 
L 367.694759 305.460789 
L 364.09738 305.460789 
z
" style="fill:#2ca02c;opacity:0.5;"/>
   </g>
   <g id="patch_221">
    <path clip-path="url(#p408d061bda)" d="M 367.694759 307.584 
L 371.292138 307.584 
L 371.292138 305.762618 
L 367.694759 305.762618 
z
" style="fill:#2ca02c;opacity:0.5;"/>
   </g>
   <g id="patch_222">
    <path clip-path="url(#p408d061bda)" d="M 371.292138 307.584 
L 374.889517 307.584 
L 374.889517 306.342858 
L 371.292138 306.342858 
z
" style="fill:#2ca02c;opacity:0.5;"/>
   </g>
   <g id="patch_223">
    <path clip-path="url(#p408d061bda)" d="M 374.889517 307.584 
L 378.486896 307.584 
L 378.486896 306.618667 
L 374.889517 306.618667 
z
" style="fill:#2ca02c;opacity:0.5;"/>
   </g>
   <g id="patch_224">
    <path clip-path="url(#p408d061bda)" d="M 378.486896 307.584 
L 382.084275 307.584 
L 382.084275 306.860651 
L 378.486896 306.860651 
z
" style="fill:#2ca02c;opacity:0.5;"/>
   </g>
   <g id="patch_225">
    <path clip-path="url(#p408d061bda)" d="M 382.084275 307.584 
L 385.681654 307.584 
L 385.681654 307.021973 
L 382.084275 307.021973 
z
" style="fill:#2ca02c;opacity:0.5;"/>
   </g>
   <g id="patch_226">
    <path clip-path="url(#p408d061bda)" d="M 385.681654 307.584 
L 389.279034 307.584 
L 389.279034 307.209316 
L 385.681654 307.209316 
z
" style="fill:#2ca02c;opacity:0.5;"/>
   </g>
   <g id="patch_227">
    <path clip-path="url(#p408d061bda)" d="M 389.279034 307.584 
L 392.876413 307.584 
L 392.876413 307.292579 
L 389.279034 307.292579 
z
" style="fill:#2ca02c;opacity:0.5;"/>
   </g>
   <g id="patch_228">
    <path clip-path="url(#p408d061bda)" d="M 392.876413 307.584 
L 396.473792 307.584 
L 396.473792 307.336812 
L 392.876413 307.336812 
z
" style="fill:#2ca02c;opacity:0.5;"/>
   </g>
   <g id="patch_229">
    <path clip-path="url(#p408d061bda)" d="M 396.473792 307.584 
L 400.071171 307.584 
L 400.071171 307.427882 
L 396.473792 307.427882 
z
" style="fill:#2ca02c;opacity:0.5;"/>
   </g>
   <g id="patch_230">
    <path clip-path="url(#p408d061bda)" d="M 400.071171 307.584 
L 403.66855 307.584 
L 403.66855 307.438289 
L 400.071171 307.438289 
z
" style="fill:#2ca02c;opacity:0.5;"/>
   </g>
   <g id="patch_231">
    <path clip-path="url(#p408d061bda)" d="M 403.66855 307.584 
L 407.265929 307.584 
L 407.265929 307.495533 
L 403.66855 307.495533 
z
" style="fill:#2ca02c;opacity:0.5;"/>
   </g>
   <g id="patch_232">
    <path clip-path="url(#p408d061bda)" d="M 407.265929 307.584 
L 410.863308 307.584 
L 410.863308 307.518951 
L 407.265929 307.518951 
z
" style="fill:#2ca02c;opacity:0.5;"/>
   </g>
   <g id="patch_233">
    <path clip-path="url(#p408d061bda)" d="M 410.863308 307.584 
L 414.460687 307.584 
L 414.460687 307.54497 
L 410.863308 307.54497 
z
" style="fill:#2ca02c;opacity:0.5;"/>
   </g>
   <g id="patch_234">
    <path clip-path="url(#p408d061bda)" d="M 414.460687 307.584 
L 418.058066 307.584 
L 418.058066 307.54497 
L 414.460687 307.54497 
z
" style="fill:#2ca02c;opacity:0.5;"/>
   </g>
   <g id="patch_235">
    <path clip-path="url(#p408d061bda)" d="M 418.058066 307.584 
L 421.655446 307.584 
L 421.655446 307.555378 
L 418.058066 307.555378 
z
" style="fill:#2ca02c;opacity:0.5;"/>
   </g>
   <g id="patch_236">
    <path clip-path="url(#p408d061bda)" d="M 421.655446 307.584 
L 425.252825 307.584 
L 425.252825 307.568388 
L 421.655446 307.568388 
z
" style="fill:#2ca02c;opacity:0.5;"/>
   </g>
   <g id="patch_237">
    <path clip-path="url(#p408d061bda)" d="M 425.252825 307.584 
L 428.850204 307.584 
L 428.850204 307.57099 
L 425.252825 307.57099 
z
" style="fill:#2ca02c;opacity:0.5;"/>
   </g>
   <g id="patch_238">
    <path clip-path="url(#p408d061bda)" d="M 428.850204 307.584 
L 432.447583 307.584 
L 432.447583 307.573592 
L 428.850204 307.573592 
z
" style="fill:#2ca02c;opacity:0.5;"/>
   </g>
   <g id="patch_239">
    <path clip-path="url(#p408d061bda)" d="M 432.447583 307.584 
L 436.044962 307.584 
L 436.044962 307.584 
L 432.447583 307.584 
z
" style="fill:#2ca02c;opacity:0.5;"/>
   </g>
   <g id="patch_240">
    <path clip-path="url(#p408d061bda)" d="M 436.044962 307.584 
L 439.642341 307.584 
L 439.642341 307.584 
L 436.044962 307.584 
z
" style="fill:#2ca02c;opacity:0.5;"/>
   </g>
   <g id="patch_241">
    <path clip-path="url(#p408d061bda)" d="M 439.642341 307.584 
L 443.23972 307.584 
L 443.23972 307.576194 
L 439.642341 307.576194 
z
" style="fill:#2ca02c;opacity:0.5;"/>
   </g>
   <g id="patch_242">
    <path clip-path="url(#p408d061bda)" d="M 443.23972 307.584 
L 446.837099 307.584 
L 446.837099 307.581398 
L 443.23972 307.581398 
z
" style="fill:#2ca02c;opacity:0.5;"/>
   </g>
   <g id="matplotlib.axis_1">
    <g id="xtick_1">
     <g id="line2d_1">
      <defs>
       <path d="M 0 0 
L 0 3.5 
" id="mcf809ac0ee" style="stroke:#000000;stroke-width:0.8;"/>
      </defs>
      <g>
       <use style="stroke:#000000;stroke-width:0.8;" x="57.6" xlink:href="#mcf809ac0ee" y="307.584"/>
      </g>
     </g>
     <g id="text_1">
      <!-- −3 -->
      <defs>
       <path d="M 10.59375 35.5 
L 73.1875 35.5 
L 73.1875 27.203125 
L 10.59375 27.203125 
z
" id="DejaVuSans-8722"/>
       <path d="M 40.578125 39.3125 
Q 47.65625 37.796875 51.625 33 
Q 55.609375 28.21875 55.609375 21.1875 
Q 55.609375 10.40625 48.1875 4.484375 
Q 40.765625 -1.421875 27.09375 -1.421875 
Q 22.515625 -1.421875 17.65625 -0.515625 
Q 12.796875 0.390625 7.625 2.203125 
L 7.625 11.71875 
Q 11.71875 9.328125 16.59375 8.109375 
Q 21.484375 6.890625 26.8125 6.890625 
Q 36.078125 6.890625 40.9375 10.546875 
Q 45.796875 14.203125 45.796875 21.1875 
Q 45.796875 27.640625 41.28125 31.265625 
Q 36.765625 34.90625 28.71875 34.90625 
L 20.21875 34.90625 
L 20.21875 43.015625 
L 29.109375 43.015625 
Q 36.375 43.015625 40.234375 45.921875 
Q 44.09375 48.828125 44.09375 54.296875 
Q 44.09375 59.90625 40.109375 62.90625 
Q 36.140625 65.921875 28.71875 65.921875 
Q 24.65625 65.921875 20.015625 65.03125 
Q 15.375 64.15625 9.8125 62.3125 
L 9.8125 71.09375 
Q 15.4375 72.65625 20.34375 73.4375 
Q 25.25 74.21875 29.59375 74.21875 
Q 40.828125 74.21875 47.359375 69.109375 
Q 53.90625 64.015625 53.90625 55.328125 
Q 53.90625 49.265625 50.4375 45.09375 
Q 46.96875 40.921875 40.578125 39.3125 
z
" id="DejaVuSans-51"/>
      </defs>
      <g transform="translate(50.228906 322.182437)scale(0.1 -0.1)">
       <use xlink:href="#DejaVuSans-8722"/>
       <use x="83.789062" xlink:href="#DejaVuSans-51"/>
      </g>
     </g>
    </g>
    <g id="xtick_2">
     <g id="line2d_2">
      <g>
       <use style="stroke:#000000;stroke-width:0.8;" x="117.12" xlink:href="#mcf809ac0ee" y="307.584"/>
      </g>
     </g>
     <g id="text_2">
      <!-- −2 -->
      <defs>
       <path d="M 19.1875 8.296875 
L 53.609375 8.296875 
L 53.609375 0 
L 7.328125 0 
L 7.328125 8.296875 
Q 12.9375 14.109375 22.625 23.890625 
Q 32.328125 33.6875 34.8125 36.53125 
Q 39.546875 41.84375 41.421875 45.53125 
Q 43.3125 49.21875 43.3125 52.78125 
Q 43.3125 58.59375 39.234375 62.25 
Q 35.15625 65.921875 28.609375 65.921875 
Q 23.96875 65.921875 18.8125 64.3125 
Q 13.671875 62.703125 7.8125 59.421875 
L 7.8125 69.390625 
Q 13.765625 71.78125 18.9375 73 
Q 24.125 74.21875 28.421875 74.21875 
Q 39.75 74.21875 46.484375 68.546875 
Q 53.21875 62.890625 53.21875 53.421875 
Q 53.21875 48.921875 51.53125 44.890625 
Q 49.859375 40.875 45.40625 35.40625 
Q 44.1875 33.984375 37.640625 27.21875 
Q 31.109375 20.453125 19.1875 8.296875 
z
" id="DejaVuSans-50"/>
      </defs>
      <g transform="translate(109.748906 322.182437)scale(0.1 -0.1)">
       <use xlink:href="#DejaVuSans-8722"/>
       <use x="83.789062" xlink:href="#DejaVuSans-50"/>
      </g>
     </g>
    </g>
    <g id="xtick_3">
     <g id="line2d_3">
      <g>
       <use style="stroke:#000000;stroke-width:0.8;" x="176.64" xlink:href="#mcf809ac0ee" y="307.584"/>
      </g>
     </g>
     <g id="text_3">
      <!-- −1 -->
      <defs>
       <path d="M 12.40625 8.296875 
L 28.515625 8.296875 
L 28.515625 63.921875 
L 10.984375 60.40625 
L 10.984375 69.390625 
L 28.421875 72.90625 
L 38.28125 72.90625 
L 38.28125 8.296875 
L 54.390625 8.296875 
L 54.390625 0 
L 12.40625 0 
z
" id="DejaVuSans-49"/>
      </defs>
      <g transform="translate(169.268906 322.182437)scale(0.1 -0.1)">
       <use xlink:href="#DejaVuSans-8722"/>
       <use x="83.789062" xlink:href="#DejaVuSans-49"/>
      </g>
     </g>
    </g>
    <g id="xtick_4">
     <g id="line2d_4">
      <g>
       <use style="stroke:#000000;stroke-width:0.8;" x="236.16" xlink:href="#mcf809ac0ee" y="307.584"/>
      </g>
     </g>
     <g id="text_4">
      <!-- 0 -->
      <defs>
       <path d="M 31.78125 66.40625 
Q 24.171875 66.40625 20.328125 58.90625 
Q 16.5 51.421875 16.5 36.375 
Q 16.5 21.390625 20.328125 13.890625 
Q 24.171875 6.390625 31.78125 6.390625 
Q 39.453125 6.390625 43.28125 13.890625 
Q 47.125 21.390625 47.125 36.375 
Q 47.125 51.421875 43.28125 58.90625 
Q 39.453125 66.40625 31.78125 66.40625 
z
M 31.78125 74.21875 
Q 44.046875 74.21875 50.515625 64.515625 
Q 56.984375 54.828125 56.984375 36.375 
Q 56.984375 17.96875 50.515625 8.265625 
Q 44.046875 -1.421875 31.78125 -1.421875 
Q 19.53125 -1.421875 13.0625 8.265625 
Q 6.59375 17.96875 6.59375 36.375 
Q 6.59375 54.828125 13.0625 64.515625 
Q 19.53125 74.21875 31.78125 74.21875 
z
" id="DejaVuSans-48"/>
      </defs>
      <g transform="translate(232.97875 322.182437)scale(0.1 -0.1)">
       <use xlink:href="#DejaVuSans-48"/>
      </g>
     </g>
    </g>
    <g id="xtick_5">
     <g id="line2d_5">
      <g>
       <use style="stroke:#000000;stroke-width:0.8;" x="295.68" xlink:href="#mcf809ac0ee" y="307.584"/>
      </g>
     </g>
     <g id="text_5">
      <!-- 1 -->
      <g transform="translate(292.49875 322.182437)scale(0.1 -0.1)">
       <use xlink:href="#DejaVuSans-49"/>
      </g>
     </g>
    </g>
    <g id="xtick_6">
     <g id="line2d_6">
      <g>
       <use style="stroke:#000000;stroke-width:0.8;" x="355.2" xlink:href="#mcf809ac0ee" y="307.584"/>
      </g>
     </g>
     <g id="text_6">
      <!-- 2 -->
      <g transform="translate(352.01875 322.182437)scale(0.1 -0.1)">
       <use xlink:href="#DejaVuSans-50"/>
      </g>
     </g>
    </g>
    <g id="xtick_7">
     <g id="line2d_7">
      <g>
       <use style="stroke:#000000;stroke-width:0.8;" x="414.72" xlink:href="#mcf809ac0ee" y="307.584"/>
      </g>
     </g>
     <g id="text_7">
      <!-- 3 -->
      <g transform="translate(411.53875 322.182437)scale(0.1 -0.1)">
       <use xlink:href="#DejaVuSans-51"/>
      </g>
     </g>
    </g>
    <g id="text_8">
     <!-- $x$ -->
     <defs>
      <path d="M 60.015625 54.6875 
L 34.90625 27.875 
L 50.296875 0 
L 39.984375 0 
L 28.421875 21.6875 
L 8.296875 0 
L -2.59375 0 
L 24.3125 28.8125 
L 10.015625 54.6875 
L 20.3125 54.6875 
L 30.8125 34.90625 
L 49.125 54.6875 
z
" id="DejaVuSans-Oblique-120"/>
     </defs>
     <g transform="translate(231.96 338.899937)scale(0.14 -0.14)">
      <use transform="translate(0 0.3125)" xlink:href="#DejaVuSans-Oblique-120"/>
     </g>
    </g>
   </g>
   <g id="matplotlib.axis_2">
    <g id="ytick_1">
     <g id="line2d_8">
      <defs>
       <path d="M 0 0 
L -3.5 0 
" id="mb2410ec826" style="stroke:#000000;stroke-width:0.8;"/>
      </defs>
      <g>
       <use style="stroke:#000000;stroke-width:0.8;" x="57.6" xlink:href="#mb2410ec826" y="307.584"/>
      </g>
     </g>
     <g id="text_9">
      <!-- 0.0 -->
      <defs>
       <path d="M 10.6875 12.40625 
L 21 12.40625 
L 21 0 
L 10.6875 0 
z
" id="DejaVuSans-46"/>
      </defs>
      <g transform="translate(34.696875 311.383219)scale(0.1 -0.1)">
       <use xlink:href="#DejaVuSans-48"/>
       <use x="63.623047" xlink:href="#DejaVuSans-46"/>
       <use x="95.410156" xlink:href="#DejaVuSans-48"/>
      </g>
     </g>
    </g>
    <g id="ytick_2">
     <g id="line2d_9">
      <g>
       <use style="stroke:#000000;stroke-width:0.8;" x="57.6" xlink:href="#mb2410ec826" y="262.66293"/>
      </g>
     </g>
     <g id="text_10">
      <!-- 0.1 -->
      <g transform="translate(34.696875 266.462148)scale(0.1 -0.1)">
       <use xlink:href="#DejaVuSans-48"/>
       <use x="63.623047" xlink:href="#DejaVuSans-46"/>
       <use x="95.410156" xlink:href="#DejaVuSans-49"/>
      </g>
     </g>
    </g>
    <g id="ytick_3">
     <g id="line2d_10">
      <g>
       <use style="stroke:#000000;stroke-width:0.8;" x="57.6" xlink:href="#mb2410ec826" y="217.741859"/>
      </g>
     </g>
     <g id="text_11">
      <!-- 0.2 -->
      <g transform="translate(34.696875 221.541078)scale(0.1 -0.1)">
       <use xlink:href="#DejaVuSans-48"/>
       <use x="63.623047" xlink:href="#DejaVuSans-46"/>
       <use x="95.410156" xlink:href="#DejaVuSans-50"/>
      </g>
     </g>
    </g>
    <g id="ytick_4">
     <g id="line2d_11">
      <g>
       <use style="stroke:#000000;stroke-width:0.8;" x="57.6" xlink:href="#mb2410ec826" y="172.820789"/>
      </g>
     </g>
     <g id="text_12">
      <!-- 0.3 -->
      <g transform="translate(34.696875 176.620008)scale(0.1 -0.1)">
       <use xlink:href="#DejaVuSans-48"/>
       <use x="63.623047" xlink:href="#DejaVuSans-46"/>
       <use x="95.410156" xlink:href="#DejaVuSans-51"/>
      </g>
     </g>
    </g>
    <g id="ytick_5">
     <g id="line2d_12">
      <g>
       <use style="stroke:#000000;stroke-width:0.8;" x="57.6" xlink:href="#mb2410ec826" y="127.899718"/>
      </g>
     </g>
     <g id="text_13">
      <!-- 0.4 -->
      <defs>
       <path d="M 37.796875 64.3125 
L 12.890625 25.390625 
L 37.796875 25.390625 
z
M 35.203125 72.90625 
L 47.609375 72.90625 
L 47.609375 25.390625 
L 58.015625 25.390625 
L 58.015625 17.1875 
L 47.609375 17.1875 
L 47.609375 0 
L 37.796875 0 
L 37.796875 17.1875 
L 4.890625 17.1875 
L 4.890625 26.703125 
z
" id="DejaVuSans-52"/>
      </defs>
      <g transform="translate(34.696875 131.698937)scale(0.1 -0.1)">
       <use xlink:href="#DejaVuSans-48"/>
       <use x="63.623047" xlink:href="#DejaVuSans-46"/>
       <use x="95.410156" xlink:href="#DejaVuSans-52"/>
      </g>
     </g>
    </g>
    <g id="ytick_6">
     <g id="line2d_13">
      <g>
       <use style="stroke:#000000;stroke-width:0.8;" x="57.6" xlink:href="#mb2410ec826" y="82.978648"/>
      </g>
     </g>
     <g id="text_14">
      <!-- 0.5 -->
      <defs>
       <path d="M 10.796875 72.90625 
L 49.515625 72.90625 
L 49.515625 64.59375 
L 19.828125 64.59375 
L 19.828125 46.734375 
Q 21.96875 47.46875 24.109375 47.828125 
Q 26.265625 48.1875 28.421875 48.1875 
Q 40.625 48.1875 47.75 41.5 
Q 54.890625 34.8125 54.890625 23.390625 
Q 54.890625 11.625 47.5625 5.09375 
Q 40.234375 -1.421875 26.90625 -1.421875 
Q 22.3125 -1.421875 17.546875 -0.640625 
Q 12.796875 0.140625 7.71875 1.703125 
L 7.71875 11.625 
Q 12.109375 9.234375 16.796875 8.0625 
Q 21.484375 6.890625 26.703125 6.890625 
Q 35.15625 6.890625 40.078125 11.328125 
Q 45.015625 15.765625 45.015625 23.390625 
Q 45.015625 31 40.078125 35.4375 
Q 35.15625 39.890625 26.703125 39.890625 
Q 22.75 39.890625 18.8125 39.015625 
Q 14.890625 38.140625 10.796875 36.28125 
z
" id="DejaVuSans-53"/>
      </defs>
      <g transform="translate(34.696875 86.777867)scale(0.1 -0.1)">
       <use xlink:href="#DejaVuSans-48"/>
       <use x="63.623047" xlink:href="#DejaVuSans-46"/>
       <use x="95.410156" xlink:href="#DejaVuSans-53"/>
      </g>
     </g>
    </g>
    <g id="text_15">
     <!-- $\pi(x)$ -->
     <defs>
      <path d="M 9.125 54.6875 
L 61.53125 54.6875 
L 59.765625 45.703125 
L 52.875 45.703125 
L 46.34375 12.109375 
Q 45.65625 8.59375 46.578125 7.03125 
Q 47.46875 5.515625 50.140625 5.515625 
Q 50.875 5.515625 51.953125 5.671875 
Q 53.078125 5.765625 53.421875 5.8125 
L 52.15625 -0.6875 
Q 50.34375 -1.3125 48.484375 -1.609375 
Q 46.578125 -1.90625 44.78125 -1.90625 
Q 38.921875 -1.90625 37.3125 1.265625 
Q 35.6875 4.5 37.359375 13.09375 
L 43.703125 45.703125 
L 23.53125 45.703125 
L 14.65625 0 
L 5.46875 0 
L 14.359375 45.703125 
L 7.375 45.703125 
z
" id="DejaVuSans-Oblique-960"/>
      <path d="M 31 75.875 
Q 24.46875 64.65625 21.28125 53.65625 
Q 18.109375 42.671875 18.109375 31.390625 
Q 18.109375 20.125 21.3125 9.0625 
Q 24.515625 -2 31 -13.1875 
L 23.1875 -13.1875 
Q 15.875 -1.703125 12.234375 9.375 
Q 8.59375 20.453125 8.59375 31.390625 
Q 8.59375 42.28125 12.203125 53.3125 
Q 15.828125 64.359375 23.1875 75.875 
z
" id="DejaVuSans-40"/>
      <path d="M 8.015625 75.875 
L 15.828125 75.875 
Q 23.140625 64.359375 26.78125 53.3125 
Q 30.421875 42.28125 30.421875 31.390625 
Q 30.421875 20.453125 26.78125 9.375 
Q 23.140625 -1.703125 15.828125 -13.1875 
L 8.015625 -13.1875 
Q 14.5 -2 17.703125 9.0625 
Q 20.90625 20.125 20.90625 31.390625 
Q 20.90625 42.671875 17.703125 53.65625 
Q 14.5 64.65625 8.015625 75.875 
z
" id="DejaVuSans-41"/>
     </defs>
     <g transform="translate(27.785312 188.388)rotate(-90)scale(0.14 -0.14)">
      <use transform="translate(0 0.125)" xlink:href="#DejaVuSans-Oblique-960"/>
      <use transform="translate(60.205078 0.125)" xlink:href="#DejaVuSans-40"/>
      <use transform="translate(99.21875 0.125)" xlink:href="#DejaVuSans-Oblique-120"/>
      <use transform="translate(158.398438 0.125)" xlink:href="#DejaVuSans-41"/>
     </g>
    </g>
   </g>
   <g id="line2d_14">
    <path clip-path="url(#p408d061bda)" d="M -1 307.583966 
L 4.032 307.583937 
L 9.984 307.583864 
L 15.936 307.583713 
L 21.888 307.583404 
L 27.84 307.582787 
L 33.792 307.581582 
L 39.744 307.579275 
L 45.696 307.574949 
L 51.648 307.567006 
L 57.6 307.552723 
L 63.552 307.527577 
L 69.504 307.484229 
L 75.456 307.411071 
L 81.408 307.290205 
L 87.36 307.094746 
L 93.312 306.785382 
L 99.264 306.306216 
L 105.216 305.580036 
L 111.168 304.503392 
L 117.12 302.942084 
L 123.072 300.72798 
L 129.024 297.658302 
L 134.976 293.498765 
L 140.928 287.991887 
L 146.88 280.871621 
L 152.832 271.884842 
L 158.784 260.819372 
L 164.736 247.537029 
L 170.688 232.008882 
L 176.64 214.348634 
L 182.592 194.839172 
L 188.544 173.947008 
L 194.496 152.319967 
L 200.448 130.764912 
L 206.4 110.20473 
L 212.352 91.616678 
L 218.304 75.95728 
L 224.256 64.081525 
L 230.208 56.66577 
L 236.16 54.144 
L 242.112 56.66577 
L 248.064 64.081525 
L 254.016 75.95728 
L 259.968 91.616678 
L 265.92 110.20473 
L 271.872 130.764912 
L 277.824 152.319967 
L 283.776 173.947008 
L 289.728 194.839172 
L 295.68 214.348634 
L 301.632 232.008882 
L 307.584 247.537029 
L 313.536 260.819372 
L 319.488 271.884842 
L 325.44 280.871621 
L 331.392 287.991887 
L 337.344 293.498765 
L 343.296 297.658302 
L 349.248 300.72798 
L 355.2 302.942084 
L 361.152 304.503392 
L 367.104 305.580036 
L 373.056 306.306216 
L 379.008 306.785382 
L 384.96 307.094746 
L 390.912 307.290205 
L 396.864 307.411071 
L 402.816 307.484229 
L 408.768 307.527577 
L 414.72 307.552723 
L 420.672 307.567006 
L 426.624 307.574949 
L 432.576 307.579275 
L 438.528 307.581582 
L 444.48 307.582787 
L 450.432 307.583404 
L 456.384 307.583713 
L 461.8 307.583851 
" style="fill:none;stroke:#1f77b4;stroke-linecap:square;stroke-width:2;"/>
   </g>
   <g id="patch_243">
    <path d="M 57.6 307.584 
L 57.6 41.472 
" style="fill:none;stroke:#000000;stroke-linecap:square;stroke-linejoin:miter;stroke-width:0.8;"/>
   </g>
   <g id="patch_244">
    <path d="M 414.72 307.584 
L 414.72 41.472 
" style="fill:none;stroke:#000000;stroke-linecap:square;stroke-linejoin:miter;stroke-width:0.8;"/>
   </g>
   <g id="patch_245">
    <path d="M 57.6 307.584 
L 414.72 307.584 
" style="fill:none;stroke:#000000;stroke-linecap:square;stroke-linejoin:miter;stroke-width:0.8;"/>
   </g>
   <g id="patch_246">
    <path d="M 57.6 41.472 
L 414.72 41.472 
" style="fill:none;stroke:#000000;stroke-linecap:square;stroke-linejoin:miter;stroke-width:0.8;"/>
   </g>
   <g id="text_16">
    <!-- 3-d non-interacting bosons $x$ distribution $N= 600$, $T= 0.200$ -->
    <defs>
     <path d="M 4.890625 31.390625 
L 31.203125 31.390625 
L 31.203125 23.390625 
L 4.890625 23.390625 
z
" id="DejaVuSans-45"/>
     <path d="M 45.40625 46.390625 
L 45.40625 75.984375 
L 54.390625 75.984375 
L 54.390625 0 
L 45.40625 0 
L 45.40625 8.203125 
Q 42.578125 3.328125 38.25 0.953125 
Q 33.9375 -1.421875 27.875 -1.421875 
Q 17.96875 -1.421875 11.734375 6.484375 
Q 5.515625 14.40625 5.515625 27.296875 
Q 5.515625 40.1875 11.734375 48.09375 
Q 17.96875 56 27.875 56 
Q 33.9375 56 38.25 53.625 
Q 42.578125 51.265625 45.40625 46.390625 
z
M 14.796875 27.296875 
Q 14.796875 17.390625 18.875 11.75 
Q 22.953125 6.109375 30.078125 6.109375 
Q 37.203125 6.109375 41.296875 11.75 
Q 45.40625 17.390625 45.40625 27.296875 
Q 45.40625 37.203125 41.296875 42.84375 
Q 37.203125 48.484375 30.078125 48.484375 
Q 22.953125 48.484375 18.875 42.84375 
Q 14.796875 37.203125 14.796875 27.296875 
z
" id="DejaVuSans-100"/>
     <path id="DejaVuSans-32"/>
     <path d="M 54.890625 33.015625 
L 54.890625 0 
L 45.90625 0 
L 45.90625 32.71875 
Q 45.90625 40.484375 42.875 44.328125 
Q 39.84375 48.1875 33.796875 48.1875 
Q 26.515625 48.1875 22.3125 43.546875 
Q 18.109375 38.921875 18.109375 30.90625 
L 18.109375 0 
L 9.078125 0 
L 9.078125 54.6875 
L 18.109375 54.6875 
L 18.109375 46.1875 
Q 21.34375 51.125 25.703125 53.5625 
Q 30.078125 56 35.796875 56 
Q 45.21875 56 50.046875 50.171875 
Q 54.890625 44.34375 54.890625 33.015625 
z
" id="DejaVuSans-110"/>
     <path d="M 30.609375 48.390625 
Q 23.390625 48.390625 19.1875 42.75 
Q 14.984375 37.109375 14.984375 27.296875 
Q 14.984375 17.484375 19.15625 11.84375 
Q 23.34375 6.203125 30.609375 6.203125 
Q 37.796875 6.203125 41.984375 11.859375 
Q 46.1875 17.53125 46.1875 27.296875 
Q 46.1875 37.015625 41.984375 42.703125 
Q 37.796875 48.390625 30.609375 48.390625 
z
M 30.609375 56 
Q 42.328125 56 49.015625 48.375 
Q 55.71875 40.765625 55.71875 27.296875 
Q 55.71875 13.875 49.015625 6.21875 
Q 42.328125 -1.421875 30.609375 -1.421875 
Q 18.84375 -1.421875 12.171875 6.21875 
Q 5.515625 13.875 5.515625 27.296875 
Q 5.515625 40.765625 12.171875 48.375 
Q 18.84375 56 30.609375 56 
z
" id="DejaVuSans-111"/>
     <path d="M 9.421875 54.6875 
L 18.40625 54.6875 
L 18.40625 0 
L 9.421875 0 
z
M 9.421875 75.984375 
L 18.40625 75.984375 
L 18.40625 64.59375 
L 9.421875 64.59375 
z
" id="DejaVuSans-105"/>
     <path d="M 18.3125 70.21875 
L 18.3125 54.6875 
L 36.8125 54.6875 
L 36.8125 47.703125 
L 18.3125 47.703125 
L 18.3125 18.015625 
Q 18.3125 11.328125 20.140625 9.421875 
Q 21.96875 7.515625 27.59375 7.515625 
L 36.8125 7.515625 
L 36.8125 0 
L 27.59375 0 
Q 17.1875 0 13.234375 3.875 
Q 9.28125 7.765625 9.28125 18.015625 
L 9.28125 47.703125 
L 2.6875 47.703125 
L 2.6875 54.6875 
L 9.28125 54.6875 
L 9.28125 70.21875 
z
" id="DejaVuSans-116"/>
     <path d="M 56.203125 29.59375 
L 56.203125 25.203125 
L 14.890625 25.203125 
Q 15.484375 15.921875 20.484375 11.0625 
Q 25.484375 6.203125 34.421875 6.203125 
Q 39.59375 6.203125 44.453125 7.46875 
Q 49.3125 8.734375 54.109375 11.28125 
L 54.109375 2.78125 
Q 49.265625 0.734375 44.1875 -0.34375 
Q 39.109375 -1.421875 33.890625 -1.421875 
Q 20.796875 -1.421875 13.15625 6.1875 
Q 5.515625 13.8125 5.515625 26.8125 
Q 5.515625 40.234375 12.765625 48.109375 
Q 20.015625 56 32.328125 56 
Q 43.359375 56 49.78125 48.890625 
Q 56.203125 41.796875 56.203125 29.59375 
z
M 47.21875 32.234375 
Q 47.125 39.59375 43.09375 43.984375 
Q 39.0625 48.390625 32.421875 48.390625 
Q 24.90625 48.390625 20.390625 44.140625 
Q 15.875 39.890625 15.1875 32.171875 
z
" id="DejaVuSans-101"/>
     <path d="M 41.109375 46.296875 
Q 39.59375 47.171875 37.8125 47.578125 
Q 36.03125 48 33.890625 48 
Q 26.265625 48 22.1875 43.046875 
Q 18.109375 38.09375 18.109375 28.8125 
L 18.109375 0 
L 9.078125 0 
L 9.078125 54.6875 
L 18.109375 54.6875 
L 18.109375 46.1875 
Q 20.953125 51.171875 25.484375 53.578125 
Q 30.03125 56 36.53125 56 
Q 37.453125 56 38.578125 55.875 
Q 39.703125 55.765625 41.0625 55.515625 
z
" id="DejaVuSans-114"/>
     <path d="M 34.28125 27.484375 
Q 23.390625 27.484375 19.1875 25 
Q 14.984375 22.515625 14.984375 16.5 
Q 14.984375 11.71875 18.140625 8.90625 
Q 21.296875 6.109375 26.703125 6.109375 
Q 34.1875 6.109375 38.703125 11.40625 
Q 43.21875 16.703125 43.21875 25.484375 
L 43.21875 27.484375 
z
M 52.203125 31.203125 
L 52.203125 0 
L 43.21875 0 
L 43.21875 8.296875 
Q 40.140625 3.328125 35.546875 0.953125 
Q 30.953125 -1.421875 24.3125 -1.421875 
Q 15.921875 -1.421875 10.953125 3.296875 
Q 6 8.015625 6 15.921875 
Q 6 25.140625 12.171875 29.828125 
Q 18.359375 34.515625 30.609375 34.515625 
L 43.21875 34.515625 
L 43.21875 35.40625 
Q 43.21875 41.609375 39.140625 45 
Q 35.0625 48.390625 27.6875 48.390625 
Q 23 48.390625 18.546875 47.265625 
Q 14.109375 46.140625 10.015625 43.890625 
L 10.015625 52.203125 
Q 14.9375 54.109375 19.578125 55.046875 
Q 24.21875 56 28.609375 56 
Q 40.484375 56 46.34375 49.84375 
Q 52.203125 43.703125 52.203125 31.203125 
z
" id="DejaVuSans-97"/>
     <path d="M 48.78125 52.59375 
L 48.78125 44.1875 
Q 44.96875 46.296875 41.140625 47.34375 
Q 37.3125 48.390625 33.40625 48.390625 
Q 24.65625 48.390625 19.8125 42.84375 
Q 14.984375 37.3125 14.984375 27.296875 
Q 14.984375 17.28125 19.8125 11.734375 
Q 24.65625 6.203125 33.40625 6.203125 
Q 37.3125 6.203125 41.140625 7.25 
Q 44.96875 8.296875 48.78125 10.40625 
L 48.78125 2.09375 
Q 45.015625 0.34375 40.984375 -0.53125 
Q 36.96875 -1.421875 32.421875 -1.421875 
Q 20.0625 -1.421875 12.78125 6.34375 
Q 5.515625 14.109375 5.515625 27.296875 
Q 5.515625 40.671875 12.859375 48.328125 
Q 20.21875 56 33.015625 56 
Q 37.15625 56 41.109375 55.140625 
Q 45.0625 54.296875 48.78125 52.59375 
z
" id="DejaVuSans-99"/>
     <path d="M 45.40625 27.984375 
Q 45.40625 37.75 41.375 43.109375 
Q 37.359375 48.484375 30.078125 48.484375 
Q 22.859375 48.484375 18.828125 43.109375 
Q 14.796875 37.75 14.796875 27.984375 
Q 14.796875 18.265625 18.828125 12.890625 
Q 22.859375 7.515625 30.078125 7.515625 
Q 37.359375 7.515625 41.375 12.890625 
Q 45.40625 18.265625 45.40625 27.984375 
z
M 54.390625 6.78125 
Q 54.390625 -7.171875 48.1875 -13.984375 
Q 42 -20.796875 29.203125 -20.796875 
Q 24.46875 -20.796875 20.265625 -20.09375 
Q 16.0625 -19.390625 12.109375 -17.921875 
L 12.109375 -9.1875 
Q 16.0625 -11.328125 19.921875 -12.34375 
Q 23.78125 -13.375 27.78125 -13.375 
Q 36.625 -13.375 41.015625 -8.765625 
Q 45.40625 -4.15625 45.40625 5.171875 
L 45.40625 9.625 
Q 42.625 4.78125 38.28125 2.390625 
Q 33.9375 0 27.875 0 
Q 17.828125 0 11.671875 7.65625 
Q 5.515625 15.328125 5.515625 27.984375 
Q 5.515625 40.671875 11.671875 48.328125 
Q 17.828125 56 27.875 56 
Q 33.9375 56 38.28125 53.609375 
Q 42.625 51.21875 45.40625 46.390625 
L 45.40625 54.6875 
L 54.390625 54.6875 
z
" id="DejaVuSans-103"/>
     <path d="M 48.6875 27.296875 
Q 48.6875 37.203125 44.609375 42.84375 
Q 40.53125 48.484375 33.40625 48.484375 
Q 26.265625 48.484375 22.1875 42.84375 
Q 18.109375 37.203125 18.109375 27.296875 
Q 18.109375 17.390625 22.1875 11.75 
Q 26.265625 6.109375 33.40625 6.109375 
Q 40.53125 6.109375 44.609375 11.75 
Q 48.6875 17.390625 48.6875 27.296875 
z
M 18.109375 46.390625 
Q 20.953125 51.265625 25.265625 53.625 
Q 29.59375 56 35.59375 56 
Q 45.5625 56 51.78125 48.09375 
Q 58.015625 40.1875 58.015625 27.296875 
Q 58.015625 14.40625 51.78125 6.484375 
Q 45.5625 -1.421875 35.59375 -1.421875 
Q 29.59375 -1.421875 25.265625 0.953125 
Q 20.953125 3.328125 18.109375 8.203125 
L 18.109375 0 
L 9.078125 0 
L 9.078125 75.984375 
L 18.109375 75.984375 
z
" id="DejaVuSans-98"/>
     <path d="M 44.28125 53.078125 
L 44.28125 44.578125 
Q 40.484375 46.53125 36.375 47.5 
Q 32.28125 48.484375 27.875 48.484375 
Q 21.1875 48.484375 17.84375 46.4375 
Q 14.5 44.390625 14.5 40.28125 
Q 14.5 37.15625 16.890625 35.375 
Q 19.28125 33.59375 26.515625 31.984375 
L 29.59375 31.296875 
Q 39.15625 29.25 43.1875 25.515625 
Q 47.21875 21.78125 47.21875 15.09375 
Q 47.21875 7.46875 41.1875 3.015625 
Q 35.15625 -1.421875 24.609375 -1.421875 
Q 20.21875 -1.421875 15.453125 -0.5625 
Q 10.6875 0.296875 5.421875 2 
L 5.421875 11.28125 
Q 10.40625 8.6875 15.234375 7.390625 
Q 20.0625 6.109375 24.8125 6.109375 
Q 31.15625 6.109375 34.5625 8.28125 
Q 37.984375 10.453125 37.984375 14.40625 
Q 37.984375 18.0625 35.515625 20.015625 
Q 33.0625 21.96875 24.703125 23.78125 
L 21.578125 24.515625 
Q 13.234375 26.265625 9.515625 29.90625 
Q 5.8125 33.546875 5.8125 39.890625 
Q 5.8125 47.609375 11.28125 51.796875 
Q 16.75 56 26.8125 56 
Q 31.78125 56 36.171875 55.265625 
Q 40.578125 54.546875 44.28125 53.078125 
z
" id="DejaVuSans-115"/>
     <path d="M 8.5 21.578125 
L 8.5 54.6875 
L 17.484375 54.6875 
L 17.484375 21.921875 
Q 17.484375 14.15625 20.5 10.265625 
Q 23.53125 6.390625 29.59375 6.390625 
Q 36.859375 6.390625 41.078125 11.03125 
Q 45.3125 15.671875 45.3125 23.6875 
L 45.3125 54.6875 
L 54.296875 54.6875 
L 54.296875 0 
L 45.3125 0 
L 45.3125 8.40625 
Q 42.046875 3.421875 37.71875 1 
Q 33.40625 -1.421875 27.6875 -1.421875 
Q 18.265625 -1.421875 13.375 4.4375 
Q 8.5 10.296875 8.5 21.578125 
z
M 31.109375 56 
z
" id="DejaVuSans-117"/>
     <path d="M 16.890625 72.90625 
L 30.171875 72.90625 
L 50.296875 10.40625 
L 62.5 72.90625 
L 72.125 72.90625 
L 57.90625 0 
L 44.578125 0 
L 24.515625 62.890625 
L 12.3125 0 
L 2.6875 0 
z
" id="DejaVuSans-Oblique-78"/>
     <path d="M 10.59375 45.40625 
L 73.1875 45.40625 
L 73.1875 37.203125 
L 10.59375 37.203125 
z
M 10.59375 25.484375 
L 73.1875 25.484375 
L 73.1875 17.1875 
L 10.59375 17.1875 
z
" id="DejaVuSans-61"/>
     <path d="M 33.015625 40.375 
Q 26.375 40.375 22.484375 35.828125 
Q 18.609375 31.296875 18.609375 23.390625 
Q 18.609375 15.53125 22.484375 10.953125 
Q 26.375 6.390625 33.015625 6.390625 
Q 39.65625 6.390625 43.53125 10.953125 
Q 47.40625 15.53125 47.40625 23.390625 
Q 47.40625 31.296875 43.53125 35.828125 
Q 39.65625 40.375 33.015625 40.375 
z
M 52.59375 71.296875 
L 52.59375 62.3125 
Q 48.875 64.0625 45.09375 64.984375 
Q 41.3125 65.921875 37.59375 65.921875 
Q 27.828125 65.921875 22.671875 59.328125 
Q 17.53125 52.734375 16.796875 39.40625 
Q 19.671875 43.65625 24.015625 45.921875 
Q 28.375 48.1875 33.59375 48.1875 
Q 44.578125 48.1875 50.953125 41.515625 
Q 57.328125 34.859375 57.328125 23.390625 
Q 57.328125 12.15625 50.6875 5.359375 
Q 44.046875 -1.421875 33.015625 -1.421875 
Q 20.359375 -1.421875 13.671875 8.265625 
Q 6.984375 17.96875 6.984375 36.375 
Q 6.984375 53.65625 15.1875 63.9375 
Q 23.390625 74.21875 37.203125 74.21875 
Q 40.921875 74.21875 44.703125 73.484375 
Q 48.484375 72.75 52.59375 71.296875 
z
" id="DejaVuSans-54"/>
     <path d="M 11.71875 12.40625 
L 22.015625 12.40625 
L 22.015625 4 
L 14.015625 -11.625 
L 7.71875 -11.625 
L 11.71875 4 
z
" id="DejaVuSans-44"/>
     <path d="M 5.90625 72.90625 
L 67.578125 72.90625 
L 66.015625 64.59375 
L 39.984375 64.59375 
L 27.484375 0 
L 17.578125 0 
L 30.078125 64.59375 
L 4.296875 64.59375 
z
" id="DejaVuSans-Oblique-84"/>
    </defs>
    <g transform="translate(56.52 35.472)scale(0.12 -0.12)">
     <use transform="translate(0 0.015625)" xlink:href="#DejaVuSans-51"/>
     <use transform="translate(63.623047 0.015625)" xlink:href="#DejaVuSans-45"/>
     <use transform="translate(99.707031 0.015625)" xlink:href="#DejaVuSans-100"/>
     <use transform="translate(163.183594 0.015625)" xlink:href="#DejaVuSans-32"/>
     <use transform="translate(194.970703 0.015625)" xlink:href="#DejaVuSans-110"/>
     <use transform="translate(258.349609 0.015625)" xlink:href="#DejaVuSans-111"/>
     <use transform="translate(319.53125 0.015625)" xlink:href="#DejaVuSans-110"/>
     <use transform="translate(382.910156 0.015625)" xlink:href="#DejaVuSans-45"/>
     <use transform="translate(418.994141 0.015625)" xlink:href="#DejaVuSans-105"/>
     <use transform="translate(446.777344 0.015625)" xlink:href="#DejaVuSans-110"/>
     <use transform="translate(510.15625 0.015625)" xlink:href="#DejaVuSans-116"/>
     <use transform="translate(549.365234 0.015625)" xlink:href="#DejaVuSans-101"/>
     <use transform="translate(610.888672 0.015625)" xlink:href="#DejaVuSans-114"/>
     <use transform="translate(652.001953 0.015625)" xlink:href="#DejaVuSans-97"/>
     <use transform="translate(713.28125 0.015625)" xlink:href="#DejaVuSans-99"/>
     <use transform="translate(768.261719 0.015625)" xlink:href="#DejaVuSans-116"/>
     <use transform="translate(807.470703 0.015625)" xlink:href="#DejaVuSans-105"/>
     <use transform="translate(835.253906 0.015625)" xlink:href="#DejaVuSans-110"/>
     <use transform="translate(898.632812 0.015625)" xlink:href="#DejaVuSans-103"/>
     <use transform="translate(962.109375 0.015625)" xlink:href="#DejaVuSans-32"/>
     <use transform="translate(993.896484 0.015625)" xlink:href="#DejaVuSans-98"/>
     <use transform="translate(1057.373047 0.015625)" xlink:href="#DejaVuSans-111"/>
     <use transform="translate(1118.554688 0.015625)" xlink:href="#DejaVuSans-115"/>
     <use transform="translate(1170.654297 0.015625)" xlink:href="#DejaVuSans-111"/>
     <use transform="translate(1231.835938 0.015625)" xlink:href="#DejaVuSans-110"/>
     <use transform="translate(1295.214844 0.015625)" xlink:href="#DejaVuSans-115"/>
     <use transform="translate(1347.314453 0.015625)" xlink:href="#DejaVuSans-32"/>
     <use transform="translate(1379.101562 0.015625)" xlink:href="#DejaVuSans-Oblique-120"/>
     <use transform="translate(1438.28125 0.015625)" xlink:href="#DejaVuSans-32"/>
     <use transform="translate(1470.068359 0.015625)" xlink:href="#DejaVuSans-100"/>
     <use transform="translate(1533.544922 0.015625)" xlink:href="#DejaVuSans-105"/>
     <use transform="translate(1561.328125 0.015625)" xlink:href="#DejaVuSans-115"/>
     <use transform="translate(1613.427734 0.015625)" xlink:href="#DejaVuSans-116"/>
     <use transform="translate(1652.636719 0.015625)" xlink:href="#DejaVuSans-114"/>
     <use transform="translate(1693.75 0.015625)" xlink:href="#DejaVuSans-105"/>
     <use transform="translate(1721.533203 0.015625)" xlink:href="#DejaVuSans-98"/>
     <use transform="translate(1785.009766 0.015625)" xlink:href="#DejaVuSans-117"/>
     <use transform="translate(1848.388672 0.015625)" xlink:href="#DejaVuSans-116"/>
     <use transform="translate(1887.597656 0.015625)" xlink:href="#DejaVuSans-105"/>
     <use transform="translate(1915.380859 0.015625)" xlink:href="#DejaVuSans-111"/>
     <use transform="translate(1976.5625 0.015625)" xlink:href="#DejaVuSans-110"/>
     <use transform="translate(2039.941406 0.015625)" xlink:href="#DejaVuSans-32"/>
     <use transform="translate(2071.728516 0.015625)" xlink:href="#DejaVuSans-Oblique-78"/>
     <use transform="translate(2166.015625 0.015625)" xlink:href="#DejaVuSans-61"/>
     <use transform="translate(2269.287109 0.015625)" xlink:href="#DejaVuSans-54"/>
     <use transform="translate(2332.910156 0.015625)" xlink:href="#DejaVuSans-48"/>
     <use transform="translate(2396.533203 0.015625)" xlink:href="#DejaVuSans-48"/>
     <use transform="translate(2460.15625 0.015625)" xlink:href="#DejaVuSans-44"/>
     <use transform="translate(2491.943359 0.015625)" xlink:href="#DejaVuSans-32"/>
     <use transform="translate(2523.730469 0.015625)" xlink:href="#DejaVuSans-Oblique-84"/>
     <use transform="translate(2604.296875 0.015625)" xlink:href="#DejaVuSans-61"/>
     <use transform="translate(2707.568359 0.015625)" xlink:href="#DejaVuSans-48"/>
     <use transform="translate(2771.191406 0.015625)" xlink:href="#DejaVuSans-46"/>
     <use transform="translate(2802.900391 0.015625)" xlink:href="#DejaVuSans-50"/>
     <use transform="translate(2866.523438 0.015625)" xlink:href="#DejaVuSans-48"/>
     <use transform="translate(2930.146484 0.015625)" xlink:href="#DejaVuSans-48"/>
    </g>
   </g>
   <g id="legend_1">
    <g id="patch_247">
     <path d="M 64.6 93.506375 
L 208.798438 93.506375 
Q 210.798438 93.506375 210.798438 91.506375 
L 210.798438 48.472 
Q 210.798438 46.472 208.798438 46.472 
L 64.6 46.472 
Q 62.6 46.472 62.6 48.472 
L 62.6 91.506375 
Q 62.6 93.506375 64.6 93.506375 
z
" style="fill:#ffffff;opacity:0.8;stroke:#cccccc;stroke-linejoin:miter;"/>
    </g>
    <g id="line2d_15">
     <path d="M 66.6 54.570438 
L 86.6 54.570438 
" style="fill:none;stroke:#1f77b4;stroke-linecap:square;stroke-width:2;"/>
    </g>
    <g id="line2d_16"/>
    <g id="text_17">
     <!-- Ground state -->
     <defs>
      <path d="M 59.515625 10.40625 
L 59.515625 29.984375 
L 43.40625 29.984375 
L 43.40625 38.09375 
L 69.28125 38.09375 
L 69.28125 6.78125 
Q 63.578125 2.734375 56.6875 0.65625 
Q 49.8125 -1.421875 42 -1.421875 
Q 24.90625 -1.421875 15.25 8.5625 
Q 5.609375 18.5625 5.609375 36.375 
Q 5.609375 54.25 15.25 64.234375 
Q 24.90625 74.21875 42 74.21875 
Q 49.125 74.21875 55.546875 72.453125 
Q 61.96875 70.703125 67.390625 67.28125 
L 67.390625 56.78125 
Q 61.921875 61.421875 55.765625 63.765625 
Q 49.609375 66.109375 42.828125 66.109375 
Q 29.4375 66.109375 22.71875 58.640625 
Q 16.015625 51.171875 16.015625 36.375 
Q 16.015625 21.625 22.71875 14.15625 
Q 29.4375 6.6875 42.828125 6.6875 
Q 48.046875 6.6875 52.140625 7.59375 
Q 56.25 8.5 59.515625 10.40625 
z
" id="DejaVuSans-71"/>
     </defs>
     <g transform="translate(94.6 58.070438)scale(0.1 -0.1)">
      <use xlink:href="#DejaVuSans-71"/>
      <use x="77.490234" xlink:href="#DejaVuSans-114"/>
      <use x="118.572266" xlink:href="#DejaVuSans-111"/>
      <use x="179.753906" xlink:href="#DejaVuSans-117"/>
      <use x="243.132812" xlink:href="#DejaVuSans-110"/>
      <use x="306.511719" xlink:href="#DejaVuSans-100"/>
      <use x="369.988281" xlink:href="#DejaVuSans-32"/>
      <use x="401.775391" xlink:href="#DejaVuSans-115"/>
      <use x="453.875" xlink:href="#DejaVuSans-116"/>
      <use x="493.083984" xlink:href="#DejaVuSans-97"/>
      <use x="554.363281" xlink:href="#DejaVuSans-116"/>
      <use x="593.572266" xlink:href="#DejaVuSans-101"/>
     </g>
    </g>
    <g id="patch_248">
     <path d="M 66.6 72.748563 
L 86.6 72.748563 
L 86.6 65.748563 
L 66.6 65.748563 
z
" style="fill:#ff7f0e;opacity:0.5;"/>
    </g>
    <g id="text_18">
     <!-- All bosons -->
     <defs>
      <path d="M 34.1875 63.1875 
L 20.796875 26.90625 
L 47.609375 26.90625 
z
M 28.609375 72.90625 
L 39.796875 72.90625 
L 67.578125 0 
L 57.328125 0 
L 50.6875 18.703125 
L 17.828125 18.703125 
L 11.1875 0 
L 0.78125 0 
z
" id="DejaVuSans-65"/>
      <path d="M 9.421875 75.984375 
L 18.40625 75.984375 
L 18.40625 0 
L 9.421875 0 
z
" id="DejaVuSans-108"/>
     </defs>
     <g transform="translate(94.6 72.748563)scale(0.1 -0.1)">
      <use xlink:href="#DejaVuSans-65"/>
      <use x="68.408203" xlink:href="#DejaVuSans-108"/>
      <use x="96.191406" xlink:href="#DejaVuSans-108"/>
      <use x="123.974609" xlink:href="#DejaVuSans-32"/>
      <use x="155.761719" xlink:href="#DejaVuSans-98"/>
      <use x="219.238281" xlink:href="#DejaVuSans-111"/>
      <use x="280.419922" xlink:href="#DejaVuSans-115"/>
      <use x="332.519531" xlink:href="#DejaVuSans-111"/>
      <use x="393.701172" xlink:href="#DejaVuSans-110"/>
      <use x="457.080078" xlink:href="#DejaVuSans-115"/>
     </g>
    </g>
    <g id="patch_249">
     <path d="M 66.6 87.426688 
L 86.6 87.426688 
L 86.6 80.426688 
L 66.6 80.426688 
z
" style="fill:#2ca02c;opacity:0.5;"/>
    </g>
    <g id="text_19">
     <!-- Bosons in longer cycle -->
     <defs>
      <path d="M 19.671875 34.8125 
L 19.671875 8.109375 
L 35.5 8.109375 
Q 43.453125 8.109375 47.28125 11.40625 
Q 51.125 14.703125 51.125 21.484375 
Q 51.125 28.328125 47.28125 31.5625 
Q 43.453125 34.8125 35.5 34.8125 
z
M 19.671875 64.796875 
L 19.671875 42.828125 
L 34.28125 42.828125 
Q 41.5 42.828125 45.03125 45.53125 
Q 48.578125 48.25 48.578125 53.8125 
Q 48.578125 59.328125 45.03125 62.0625 
Q 41.5 64.796875 34.28125 64.796875 
z
M 9.8125 72.90625 
L 35.015625 72.90625 
Q 46.296875 72.90625 52.390625 68.21875 
Q 58.5 63.53125 58.5 54.890625 
Q 58.5 48.1875 55.375 44.234375 
Q 52.25 40.28125 46.1875 39.3125 
Q 53.46875 37.75 57.5 32.78125 
Q 61.53125 27.828125 61.53125 20.40625 
Q 61.53125 10.640625 54.890625 5.3125 
Q 48.25 0 35.984375 0 
L 9.8125 0 
z
" id="DejaVuSans-66"/>
      <path d="M 32.171875 -5.078125 
Q 28.375 -14.84375 24.75 -17.8125 
Q 21.140625 -20.796875 15.09375 -20.796875 
L 7.90625 -20.796875 
L 7.90625 -13.28125 
L 13.1875 -13.28125 
Q 16.890625 -13.28125 18.9375 -11.515625 
Q 21 -9.765625 23.484375 -3.21875 
L 25.09375 0.875 
L 2.984375 54.6875 
L 12.5 54.6875 
L 29.59375 11.921875 
L 46.6875 54.6875 
L 56.203125 54.6875 
z
" id="DejaVuSans-121"/>
     </defs>
     <g transform="translate(94.6 87.426688)scale(0.1 -0.1)">
      <use xlink:href="#DejaVuSans-66"/>
      <use x="68.603516" xlink:href="#DejaVuSans-111"/>
      <use x="129.785156" xlink:href="#DejaVuSans-115"/>
      <use x="181.884766" xlink:href="#DejaVuSans-111"/>
      <use x="243.066406" xlink:href="#DejaVuSans-110"/>
      <use x="306.445312" xlink:href="#DejaVuSans-115"/>
      <use x="358.544922" xlink:href="#DejaVuSans-32"/>
      <use x="390.332031" xlink:href="#DejaVuSans-105"/>
      <use x="418.115234" xlink:href="#DejaVuSans-110"/>
      <use x="481.494141" xlink:href="#DejaVuSans-32"/>
      <use x="513.28125" xlink:href="#DejaVuSans-108"/>
      <use x="541.064453" xlink:href="#DejaVuSans-111"/>
      <use x="602.246094" xlink:href="#DejaVuSans-110"/>
      <use x="665.625" xlink:href="#DejaVuSans-103"/>
      <use x="729.101562" xlink:href="#DejaVuSans-101"/>
      <use x="790.625" xlink:href="#DejaVuSans-114"/>
      <use x="831.738281" xlink:href="#DejaVuSans-32"/>
      <use x="863.525391" xlink:href="#DejaVuSans-99"/>
      <use x="918.505859" xlink:href="#DejaVuSans-121"/>
      <use x="977.685547" xlink:href="#DejaVuSans-99"/>
      <use x="1032.666016" xlink:href="#DejaVuSans-108"/>
      <use x="1060.449219" xlink:href="#DejaVuSans-101"/>
     </g>
    </g>
   </g>
  </g>
 </g>
 <defs>
  <clipPath id="p408d061bda">
   <rect height="266.112" width="357.12" x="57.6" y="41.472"/>
  </clipPath>
 </defs>
</svg>
